 45
 45
 45
 48
 48
 49
 50
 50
 52
 53
 54
 55
 56
 57
 58
 59
 60
 61
 62
 62
 62
 67
 67
 67
 68
 69
 70
 71
 72
 73
 74
 75
 75
 78
 78
 79
 79
 79
 84
 84
 84
 84
 84
 84
 45
 45
 45
 48
 48
 49
 50
 50
 52
 53
 54
 55
 56
 57
 58
 59
 60
 61
 62
 62
 62
 67
 67
 67
 68
 69
 70
 71
 72
 73
 74
 75
 75
 78
 78
 79
 79
 79
 84
 84
 84
 84
 84
 84
 89
 89
 89
 92
 92
 93
 94
 94
 96
 97
 98
 99
100
101
102
103
104
105
106
106
152
153
111
111
112
113
114
115
116
117
118
119
119
122
122
123
123
169
170
128
128
128
128
128
133
133
134
135
136
137
138
138
140
141
142
143
144
145
146
147
148
149
150
151
152
153
154
155
156
157
158
159
160
161
162
163
163
166
166
167
168
169
170
171
172
172
172
172
133
133
178
179
180
181
182
183
184
185
186
187
188
189
190
191
192
193
194
195
196
197
198
199
200
201
202
203
204
205
206
207
207
210
210
211
212
213
214
215
216
216
216
216
222
222
222
223
224
225
226
227
228
229
230
231
232
233
234
235
236
237
238
239
240
241
242
199
200
201
202
203
204
205
206
207
207
254
254
255
256
257
258
259
260
260
260
260
266
266
266
267
268
269
270
271
272
273
274
275
276
277
278
279
280
281
282
283
284
285
286
286
200
201
202
203
204
205
206
207
298
298
298
299
300
301
302
303
304
304
304
304
266
266
266
267
268
269
314
315
316
317
318
319
320
321
322
323
324
325
326
327
328
329
330
330
376
377
378
379
380
381
382
383
384
342
342
343
344
345
346
347
348
348
348
438
441
441
266
267
268
358
358
359
360
361
362
363
364
365
366
367
368
369
370
371
372
373
374
375
376
377
378
379
380
381
382
383
384
385
386
387
388
389
390
391
392
392
438
438
441
441
442
443
444
402
402
403
404
405
406
407
408
409
410
411
412
413
414
415
416
417
418
419
420
421
422
423
424
425
426
427
428
429
430
431
432
433
434
435
436
437
438
438
441
441
442
443
444
445
446
447
448
449
450
451
452
453
454
455
456
457
458
459
460
461
462
463
464
465
466
467
468
469
470
471
472
473
474
475
476
477
478
479
480
481
482
482
485
485
486
487
488
489
446
447
492
493
494
495
496
497
498
499
500
457
458
503
504
505
506
507
464
465
510
511
512
513
514
515
516
517
518
519
476
477
522
523
524
525
526
526
529
529
530
531
532
489
489
492
492
537
538
539
540
541
542
543
500
500
503
503
548
549
550
507
507
510
510
555
556
557
558
559
560
561
562
519
519
522
522
567
568
569
570
570
573
573
574
531
532
532
489
492
537
537
582
583
584
585
586
543
543
500
503
548
548
549
550
550
507
510
555
555
600
601
602
603
604
561
562
562
519
522
567
567
568
613
614
614
573
573
574
574
532
532
532
537
537
582
582
627
628
585
586
586
543
543
548
548
548
549
550
550
550
555
555
600
600
601
646
647
604
604
562
562
562
567
567
567
613
613
658
658
573
573
574
574
574
532
532
537
582
582
627
627
672
672
586
586
586
543
548
548
548
549
550
550
550
555
600
600
600
690
690
647
647
604
604
562
562
567
567
613
613
658
658
658
749
749
750
750
796
796
796
801
758
758
758
716
716
716
762
762
762
807
812
812
812
813
814
814
814
819
776
776
776
734
734
735
735
780
826
826
826
831
831
831
789
746
746
746
749
749
750
750
796
796
796
801
801
758
758
759
760
761
762
762
807
807
812
812
812
813
814
814
814
819
819
776
776
777
778
779
780
780
826
826
826
831
831
831
789
789
790
790
793
793
794
795
796
796
841
844
801
801
802
803
804
805
806
807
807
852
855
812
812
813
814
814
859
862
819
819
820
821
822
823
824
825
826
826
871
874
831
831
832
833
834
834
837
837
838
839
840
841
841
844
844
845
846
847
848
849
850
851
852
852
855
855
856
857
858
859
859
862
862
863
864
865
866
867
868
869
870
871
871
874
874
875
876
877
878
878
837
837
838
839
840
841
841
844
844
845
846
847
848
849
850
851
852
852
855
855
856
857
858
859
859
862
862
863
864
865
866
867
868
869
870
871
871
874
874
875
876
877
878
878
