108
108
108
108
108
108
108
108
108
109
110
111
112
113
114
115
116
117
118
119
120
121
122
123
124
125
126
127
128
129
129
129
129
129
129
129
129
129
129
129
129
129
129
129
129
129
129
129
129
129
129
129
129
129
129
129
129
129
129
129
129
129
830
830
830
830
830
830
830
830
830
830
830
830
830
830
830
830
830
830
830
5178
5178
5178
5178
5178
5192
5192
5192
5192
5192
5192
5192
5193
5194
5195
5196
5197
5198
5198
801
108
108
108
108
108
108
108
108
109
110
111
112
113
114
115
116
117
118
119
120
121
122
123
124
125
126
127
128
129
129
129
129
129
129
129
129
129
129
129
129
129
129
129
129
129
129
129
129
129
129
129
129
129
129
830
830
830
830
830
830
830
830
830
830
830
830
830
830
830
830
830
830
830
830
830
830
830
830
830
5178
5178
5178
5178
5178
5178
5192
5192
5192
5192
5192
5192
5192
5193
5194
5195
5196
5197
5198
5198
801
801
208
208
208
208
208
208
208
209
210
211
212
213
214
215
216
217
218
219
220
221
222
223
224
225
226
227
228
229
229
229
229
229
229
229
229
229
229
229
229
229
229
229
229
229
229
229
830
830
830
830
830
830
830
830
830
830
830
830
830
830
830
830
830
830
830
830
830
830
830
830
830
830
830
830
830
830
830
5178
5178
5178
5178
5178
5178
5178
5192
5192
5192
5192
5192
5192
5192
5193
5194
5195
5196
5197
5198
5198
801
801
802
308
308
308
308
308
308
309
310
311
312
313
314
315
316
317
318
319
320
321
322
323
324
325
326
327
328
329
329
329
329
329
329
329
329
329
329
329
329
329
329
830
830
830
830
830
830
830
830
830
830
830
830
830
830
830
830
830
830
830
830
830
830
830
830
830
830
830
830
830
830
830
830
830
830
830
5178
5178
5178
5178
5178
5178
5178
5178
5192
5192
5192
5192
5192
5192
5192
5193
5194
5195
5196
5197
5198
5198
801
801
802
803
408
408
408
408
408
409
410
411
412
413
414
415
416
417
418
419
420
421
422
423
424
425
426
427
428
429
429
429
429
429
429
429
429
429
830
830
830
830
830
830
830
830
830
830
830
830
830
830
830
830
830
830
830
830
830
830
830
830
830
830
830
830
830
830
830
830
830
830
830
830
830
830
830
5177
5178
5178
5178
5178
5178
5178
5178
5178
5192
5192
5192
5192
5192
5192
5192
5193
5194
5195
5196
5197
5198
5198
801
801
802
803
804
508
508
508
508
509
510
511
512
513
514
515
516
517
518
519
520
521
522
523
524
525
526
527
528
529
529
529
529
529
529
830
830
830
830
830
830
830
830
830
830
830
830
830
830
830
830
830
830
830
830
830
830
830
830
830
830
830
830
830
830
830
830
830
830
830
830
830
830
830
830
830
5176
5177
5178
5178
5178
5178
5178
5178
5178
5178
5192
5192
5192
5192
5192
5192
5192
5193
5194
5195
5196
5197
5198
5198
801
801
802
803
804
805
608
608
608
609
610
611
612
613
614
615
616
617
618
619
620
621
622
623
624
625
626
627
628
629
629
629
830
830
830
830
830
830
830
830
830
830
830
830
830
830
830
830
830
830
830
830
830
830
830
830
830
830
830
830
830
830
830
830
830
830
830
830
830
830
830
830
830
830
830
5175
5176
5177
5178
5178
5178
5178
5178
5178
5178
5178
5192
5192
5192
5192
5192
5192
5192
5193
5194
5195
5196
5197
5198
5198
801
801
802
803
804
805
806
708
708
709
710
711
712
713
714
715
716
717
718
719
720
721
722
723
724
725
726
727
728
729
729
830
830
830
830
830
830
830
830
830
830
830
830
830
830
830
830
830
830
830
830
830
830
830
830
830
830
830
830
830
830
830
830
830
830
830
830
830
830
830
830
830
830
830
5174
5175
5176
5177
5178
5178
5178
5178
5178
5178
5178
5178
5192
5192
5192
5192
5192
5192
5192
5193
5194
5195
5196
5197
5198
5198
801
801
802
803
804
805
806
807
808
809
810
811
812
813
814
815
816
817
818
819
820
821
822
823
824
825
826
827
828
829
830
830
830
830
830
830
830
830
830
830
830
830
830
830
830
830
830
830
830
830
830
830
830
830
830
830
830
830
830
830
830
830
830
830
830
830
830
830
830
830
830
830
830
830
5174
5175
5176
5177
5178
5178
5178
5178
5178
5178
5178
5178
5192
5192
5192
5192
5192
5192
5192
5193
5194
5195
5196
5197
5198
5198
901
901
902
903
904
905
906
907
908
909
910
911
912
913
914
915
916
917
918
919
920
921
922
923
924
925
926
927
928
929
930
930
930
930
930
930
930
930
930
930
930
930
930
930
930
930
930
930
930
930
930
930
930
930
930
930
930
930
930
930
930
930
930
930
930
930
930
930
930
930
930
930
930
5173
5174
5175
5176
5177
5178
5178
5178
5178
5178
5178
5178
5178
5192
5192
5192
5192
5192
5192
5192
5193
5194
5195
5196
5197
5198
5198
1001
1001
1002
1003
1004
1005
1006
1007
1008
1009
1010
1011
1012
1013
1014
1015
1016
1017
1018
1019
1020
1021
1022
1023
1024
1025
1026
1027
1028
1029
1030
1030
1030
1030
1030
1030
1030
1030
1030
1030
1030
1030
1030
1030
1030
1030
1030
1030
1030
1030
1030
1030
1030
1030
1030
1030
1030
1030
1030
1030
1030
1030
1030
1030
1030
1030
1030
1030
1030
1030
1030
1030
5172
5173
5174
5175
5176
5177
5178
5178
5178
5178
5178
5178
5178
5178
5192
5192
5192
5192
5192
5192
5192
5193
5194
5195
5196
5197
5198
5198
1101
1101
1102
1103
1104
1105
1106
1107
1108
1109
1110
1111
1112
1113
1114
1115
1116
1117
1118
1119
1120
1121
1122
1123
1124
1125
1126
1127
1128
1129
1130
1130
1130
1130
1130
1130
1130
1130
1130
1130
1130
1130
1130
1130
1130
1130
1130
1130
1130
1130
1130
1130
1130
1130
1130
1130
1130
1130
1130
1130
1130
1130
1130
1130
1130
1130
1130
1130
1130
1130
1130
5171
5172
5173
5174
5175
5176
5177
5178
5178
5178
5178
5178
5178
5178
5178
5192
5192
5192
5192
5192
5192
5192
5193
5194
5195
5196
5197
5198
5198
1201
1201
1202
1203
1204
1205
1206
1207
1208
1209
1210
1211
1212
1213
1214
1215
1216
1217
1218
1219
1220
1221
1222
1223
1224
1225
1226
1227
1228
1229
1230
1230
1230
1230
1230
1230
1230
1230
1230
1230
1230
1230
1230
1230
1230
1230
1230
1230
1230
1230
1230
1230
1230
1230
1230
1230
1230
1230
1230
1230
1230
1230
1230
1230
1230
1230
1230
1230
1230
1230
5170
5171
5172
5173
5174
5175
5176
5177
5178
5178
5178
5178
5178
5178
5178
5178
5192
5192
5192
5192
5192
5192
5192
5193
5194
5195
5196
5197
5198
5198
1301
1301
1302
1303
1304
1305
1306
1307
1308
1309
1310
1311
1312
1313
1314
1315
1316
1317
1318
1319
1320
1321
1322
1323
1324
1325
1326
1327
1328
1329
1330
1330
1330
1330
1330
1330
1330
1330
1330
1330
1330
1330
1330
1330
1330
1330
1330
1330
1330
1330
1330
1330
1330
1330
1330
1330
1330
1330
1330
1330
1330
1330
1330
1330
1330
1330
1330
1330
1330
5169
5170
5171
5172
5173
5174
5175
5176
5177
5178
5178
5178
5178
5178
5178
5178
5178
5192
5192
5192
5192
5192
5192
5192
5193
5194
5195
5196
5197
5198
5198
1401
1401
1402
1403
1404
1405
1406
1407
1408
1409
1410
1411
1412
1413
1414
1415
1416
1417
1418
1419
1420
1421
1422
1423
1424
1425
1426
1427
1428
1429
1430
1430
1430
1430
1430
1430
1430
1430
1430
1430
1430
1430
1430
1430
1430
1430
1430
1430
1430
1430
1430
1430
1430
1430
1430
1430
1430
1430
1430
1430
1430
1430
1430
1430
1430
1430
1430
1430
5168
5169
5170
5171
5172
5173
5174
5175
5176
5177
5178
5178
5178
5178
5178
5178
5178
5178
5192
5192
5192
5192
5192
5192
5192
5193
5194
5195
5196
5197
5198
5198
1501
1501
1502
1503
1504
1505
1506
1507
1508
1509
1510
1511
1512
1513
1514
1515
1516
1517
1518
1519
1520
1521
1522
1523
1524
1525
1526
1527
1528
1529
1530
1530
1530
1530
1530
1530
1530
1530
1530
1530
1530
1530
1530
1530
1530
1530
1530
1530
1530
1530
1530
1530
1530
1530
1530
1530
1530
1530
1530
1530
1530
1530
1530
1530
1530
1530
1530
5167
5168
5169
5170
5171
5172
5173
5174
5175
5176
5177
5178
5178
5178
5178
5178
5178
5178
5178
5192
5192
5192
5192
5192
5192
5192
5193
5194
5195
5196
5197
5198
5198
1601
1601
1602
1603
1604
1605
1606
1607
1608
1609
1610
1611
1612
1613
1614
1615
1616
1617
1618
1619
1620
1621
1622
1623
1624
1625
1626
1627
1628
1629
1630
1630
1630
1630
1630
1630
1630
1630
1630
1630
1630
1630
1630
1630
1630
1630
1630
1630
1630
1630
1630
1630
1630
1630
1630
1630
1630
1630
1630
1630
1630
1630
1630
1630
1630
1630
5166
5167
5168
5169
5170
5171
5172
5173
5174
5175
5176
5177
5178
5178
5178
5178
5178
5178
5178
5178
5192
5192
5192
5192
5192
5192
5192
5193
5194
5195
5196
5197
5198
5198
1701
1701
1702
1703
1704
1705
1706
1707
1708
1709
1710
1711
1712
1713
1714
1715
1716
1717
1718
1719
1720
1721
1722
1723
1724
1725
1726
1727
1728
1729
1730
1730
1730
1730
1730
1730
1730
1730
1730
1730
1730
1730
1730
1730
1730
1730
1730
1730
1730
1730
1730
1730
1730
1730
1730
1730
1730
1730
1730
1730
1730
1730
1730
1730
1730
5165
5166
5167
5168
5169
5170
5171
5172
5173
5174
5175
5176
5177
5178
5178
5178
5178
5178
5178
5178
5178
5192
5192
5192
5192
5192
5192
5192
5193
5194
5195
5196
5197
5198
5198
1801
1801
1802
1803
1804
1805
1806
1807
1808
1809
1810
1811
1812
1813
1814
1815
1816
1817
1818
1819
1820
1821
1822
1823
1824
1825
1826
1827
1828
1829
1830
1830
1830
1830
1830
1830
1830
1830
1830
1830
1830
1830
1830
1830
1830
1830
1830
1830
1830
1830
1830
1830
1830
1830
1830
1830
1830
1830
1830
1830
1830
1830
1830
1830
5164
5165
5166
5167
5168
5169
5170
5171
5172
5173
5174
5175
5176
5177
5178
5178
5178
5178
5178
5178
5178
5178
5192
5192
5192
5192
5192
5192
5192
5193
5194
5195
5196
5197
5198
5198
1901
1901
1902
1903
1904
1905
1906
1907
1908
1909
1910
1911
1912
1913
1914
1915
1916
1917
1918
1919
1920
1921
1922
1923
1924
1925
1926
1927
1928
1929
1930
1930
1930
1930
1930
1930
1930
1930
1930
1930
1930
1930
1930
1930
1930
1930
1930
1930
1930
1930
1930
1930
1930
1930
1930
1930
1930
1930
1930
1930
1930
1930
1930
5163
5164
5165
5166
5167
5168
5169
5170
5171
5172
5173
5174
5175
5176
5177
5178
5178
5178
5178
5178
5178
5178
5178
5192
5192
5192
5192
5192
5192
5192
5193
5194
5195
5196
5197
5198
5198
2001
2001
2002
2003
2004
2005
2006
2007
2008
2009
2010
2011
2012
2013
2014
2015
2016
2017
2018
2019
2020
2021
2022
2023
2024
2025
2026
2027
2028
2029
2030
2030
2030
2030
2030
2030
2030
2030
2030
2030
2030
2030
2030
2030
2030
2030
2030
2030
2030
2030
2030
2030
2030
2030
2030
2030
2030
2030
2030
2030
2030
2030
5163
5163
5164
5165
5166
5167
5168
5169
5170
5171
5172
5173
5174
5175
5176
5177
5178
5178
5178
5178
5178
5178
5178
5178
5192
5192
5192
5192
5192
5192
5192
5193
5194
5195
5196
5197
5198
5198
2101
2101
2102
2103
2104
2105
2106
2107
2108
2109
2110
2111
2112
2113
2114
2115
2116
2117
2118
2119
2120
2121
2122
2123
2124
2125
2126
2127
2128
2129
2130
2130
2130
2130
2130
2130
2130
2130
2130
2130
2130
2130
2130
2130
2130
2130
2130
2130
2130
2130
2130
2130
2130
2130
2130
2130
2130
2130
2130
2130
2130
5163
5163
5163
5164
5165
5166
5167
5168
5169
5170
5171
5172
5173
5174
5175
5176
5177
5178
5178
5178
5178
5178
5178
5178
5178
5192
5192
5192
5192
5192
5192
5192
5193
5194
5195
5196
5197
5198
5198
2201
2201
2202
2203
2204
2205
2206
2207
2208
2209
2210
2211
2212
2213
2214
2215
2216
2217
2218
2219
2220
2221
2222
2223
2224
2225
2226
2227
2228
2229
2230
2230
2230
2230
2230
2230
2230
2230
2230
2230
2230
2230
2230
2230
2230
2230
2230
2230
2230
2230
2230
2230
2230
2230
2230
2230
2230
2230
2230
2230
5163
5163
5163
5163
5164
5165
5166
5167
5168
5169
5170
5171
5172
5173
5174
5175
5176
5177
5178
5178
5178
5178
5178
5178
5178
5178
5192
5192
5192
5192
5192
5192
5192
5193
5194
5195
5196
5197
5198
5198
2301
2301
2302
2303
2304
2305
2306
2307
2308
2309
2310
2311
2312
2313
2314
2315
2316
2317
2318
2319
2320
2321
2322
2323
2324
2325
2326
2327
2328
2329
2330
2330
2330
2330
2330
2330
2330
2330
2330
2330
2330
2330
2330
2330
2330
2330
2330
2330
2330
2330
2330
2330
2330
2330
2330
2330
2330
2330
2330
5163
5163
5163
5163
5163
5164
5165
5166
5167
5168
5169
5170
5171
5172
5173
5174
5175
5176
5177
5178
5178
5178
5178
5178
5178
5178
5178
5192
5192
5192
5192
5192
5192
5192
5193
5194
5195
5196
5197
5198
5198
2401
2401
2402
2403
2404
2405
2406
2407
2408
2409
2410
2411
2412
2413
2414
2415
2416
2417
2418
2419
2420
2421
2422
2423
2424
2425
2426
2427
2428
2429
2430
2430
2430
2430
2430
2430
2430
2430
2430
2430
2430
2430
2430
2430
2430
2430
2430
2430
2430
2430
2430
2430
2430
2430
2430
2430
2430
2430
5163
5163
5163
5163
5163
5163
5164
5165
5166
5167
5168
5169
5170
5171
5172
5173
5174
5175
5176
5177
5178
5178
5178
5178
5178
5178
5178
5178
5192
5192
5192
5192
5192
5192
5192
5193
5194
5195
5196
5197
5198
5198
2501
2501
2502
2503
2504
2505
2506
2507
2508
2509
2510
2511
2512
2513
2514
2515
2516
2517
2518
2519
2520
2521
2522
2523
2524
2525
2526
2527
2528
2529
2530
2530
2530
2530
2530
2530
2530
2530
2530
2530
2530
2530
2530
2530
2530
2530
2530
2530
2530
2530
2530
2530
2530
2530
2530
2530
2530
5163
5163
5163
5163
5163
5163
5163
5164
5165
5166
5167
5168
5169
5170
5171
5172
5173
5174
5175
5176
5177
5178
5178
5178
5178
5178
5178
5178
5178
5192
5192
5192
5192
5192
5192
5192
5193
5194
5195
5196
5197
5198
5198
2601
2601
2602
2603
2604
2605
2606
2607
2608
2609
2610
2611
2612
2613
2614
2615
2616
2617
2618
2619
2620
2621
2622
2623
2624
2625
2626
2627
2628
2629
2630
2630
2630
2630
2630
2630
2630
2630
2630
2630
2630
2630
2630
2630
2630
2630
2630
2630
2630
2630
2630
2630
2630
2630
2630
2630
5163
5163
5163
5163
5163
5163
5163
5163
5164
5165
5166
5167
5168
5169
5170
5171
5172
5173
5174
5175
5176
5177
5178
5178
5178
5178
5178
5178
5178
5178
5192
5192
5192
5192
5192
5192
5192
5193
5194
5195
5196
5197
5198
5198
2701
2701
2702
2703
2704
2705
2706
2707
2708
2709
2710
2711
2712
2713
2714
2715
2716
2717
2718
2719
2720
2721
2722
2723
2724
2725
2726
2727
2728
2729
2730
2730
2730
2730
2730
2730
2730
2730
2730
2730
2730
2730
2730
2730
2730
2730
2730
2730
2730
2730
2730
2730
2730
2730
2730
2730
5163
5163
5163
5163
5163
5163
5163
5163
5164
5165
5166
5167
5168
5169
5170
5171
5172
5173
5174
5175
5176
5177
5178
5178
5178
5178
5178
5178
5178
5178
5192
5192
5192
5192
5192
5192
5192
5193
5194
5195
5196
5197
5198
5198
2801
2801
2802
2803
2804
2805
2806
2807
2808
2809
2810
2811
2812
2813
2814
2815
2816
2817
2818
2819
2820
2821
2822
2823
2824
2825
2826
2827
2828
2829
2830
2830
2830
2830
2830
2830
2830
2830
2830
2830
2830
2830
2830
2830
2830
2830
2830
2830
2830
2830
2830
2830
2830
2830
2830
5163
5163
5163
5163
5163
5163
5163
5163
5163
5164
5165
5166
5167
5168
5169
5170
5171
5172
5173
5174
5175
5176
5177
5178
5178
5178
5178
5178
5178
5178
5178
5192
5192
5192
5192
5192
5192
5192
5193
5194
5195
5196
5197
5198
5198
2901
2901
2902
2903
2904
2905
2906
2907
2908
2909
2910
2911
2912
2913
2914
2915
2916
2917
2918
2919
2920
2921
2922
2923
2924
2925
2926
2927
2928
2929
2930
2930
2930
2930
2930
2930
2930
2930
2930
2930
2930
2930
2930
2930
2930
2930
2930
2930
2930
2930
2930
2930
2930
2930
5163
5163
5163
5163
5163
5163
5163
5163
5163
5163
5164
5165
5166
5167
5168
5169
5170
5171
5172
5173
5174
5175
5176
5177
5178
5178
5178
5178
5178
5178
5178
5178
5192
5192
5192
5192
5192
5192
5192
5193
5194
5195
5196
5197
5198
5198
3001
3001
3002
3003
3004
3005
3006
3007
3008
3009
3010
3011
3012
3013
3014
3015
3016
3017
3018
3019
3020
3021
3022
3023
3024
3025
3026
3027
3028
3029
3030
3030
3030
3030
3030
3030
3030
3030
3030
3030
3030
3030
3030
3030
3030
3030
3030
3030
3030
3030
3030
3030
3030
3030
5163
5163
5163
5163
5163
5163
5163
5163
5163
5163
5164
5165
5166
5167
5168
5169
5170
5171
5172
5173
5174
5175
5176
5177
5178
5178
5178
5178
5178
5178
5178
5178
5192
5192
5192
5192
5192
5192
5192
5193
5194
5195
5196
5197
5198
5198
3101
3101
3102
3103
3104
3105
3106
3107
3108
3109
3110
3111
3112
3113
3114
3115
3116
3117
3118
3119
3120
3121
3122
3123
3124
3125
3126
3127
3128
3129
3130
3130
3130
3130
3130
3130
3130
3130
3130
3130
3130
3130
3130
3130
3130
3130
3130
3130
3130
3130
3130
3130
3130
5163
5163
5163
5163
5163
5163
5163
5163
5163
5163
5163
5164
5165
5166
5167
5168
5169
5170
5171
5172
5173
5174
5175
5176
5177
5178
5178
5178
5178
5178
5178
5178
5178
5192
5192
5192
5192
5192
5192
5192
5193
5194
5195
5196
5197
5198
5198
3201
3201
3202
3203
3204
3205
3206
3207
3208
3209
3210
3211
3212
3213
3214
3215
3216
3217
3218
3219
3220
3221
3222
3223
3224
3225
3226
3227
3228
3229
3230
3230
3230
3230
3230
3230
3230
3230
3230
3230
3230
3230
3230
3230
3230
3230
3230
3230
3230
3230
3230
3230
5141
5163
5163
5163
5163
5163
5163
5163
5163
5163
5163
5163
5164
5165
5166
5167
5168
5169
5170
5171
5172
5173
5174
5175
5176
5177
5178
5178
5178
5178
5178
5178
5178
5178
5192
5192
5192
5192
5192
5192
5192
5193
5194
5195
5196
5197
5198
5198
3301
3301
3302
3303
3304
3305
3306
3307
3308
3309
3310
3311
3312
3313
3314
3315
3316
3317
3318
3319
3320
3321
3322
3323
3324
3325
3326
3327
3328
3329
3330
3330
3330
3330
3330
3330
3330
3330
3330
3330
3330
3330
3330
3330
3330
3330
3330
3330
3330
3330
3330
5141
5141
5163
5163
5163
5163
5163
5163
5163
5163
5163
5163
5163
5164
5165
5166
5167
5168
5169
5170
5171
5172
5173
5174
5175
5176
5177
5178
5178
5178
5178
5178
5178
5178
5178
5192
5192
5192
5192
5192
5192
5192
5193
5194
5195
5196
5197
5198
5198
3401
3401
3402
3403
3404
3405
3406
3407
3408
3409
3410
3411
3412
3413
3414
3415
3416
3417
3418
3419
3420
3421
3422
3423
3424
3425
3426
3427
3428
3429
3430
3430
3430
3430
3430
3430
3430
3430
3430
3430
3430
3430
3430
3430
3430
3430
3430
3430
3430
5141
5141
5141
5141
5163
5163
5163
5163
5163
5163
5163
5163
5163
5163
5163
5164
5165
5166
5167
5168
5169
5170
5171
5172
5173
5174
5175
5176
5177
5178
5178
5178
5178
5178
5178
5178
5178
5192
5192
5192
5192
5192
5192
5192
5193
5194
5195
5196
5197
5198
5198
3501
3501
3502
3503
3504
3505
3506
3507
3508
3509
3510
3511
3512
3513
3514
3515
3516
3517
3518
3519
3520
3521
3522
3523
3524
3525
3526
3527
3528
3529
3530
3530
3530
3530
3530
3530
3530
3530
3530
3530
3530
3530
3530
3530
3530
3530
3530
3530
5141
5141
5141
5141
5141
5163
5163
5163
5163
5163
5163
5163
5163
5163
5163
5163
5164
5165
5166
5167
5168
5169
5170
5171
5172
5173
5174
5175
5176
5177
5178
5178
5178
5178
5178
5178
5178
5178
5192
5192
5192
5192
5192
5192
5192
5193
5194
5195
5196
5197
5198
5198
3601
3601
3602
3603
3604
3605
3606
3607
3608
3609
3610
3611
3612
3613
3614
3615
3616
3617
3618
3619
3620
3621
3622
3623
3624
3625
3626
3627
3628
3629
3630
3630
3630
3630
3630
3630
3630
3630
3630
3630
3630
3630
3630
3630
3630
3630
5141
5141
5141
5141
5141
5141
5141
5163
5163
5163
5163
5163
5163
5163
5163
5163
5163
5163
5164
5165
5166
5167
5168
5169
5170
5171
5172
5173
5174
5175
5176
5177
5178
5178
5178
5178
5178
5178
5178
5178
5192
5192
5192
5192
5192
5192
5192
5193
5194
5195
5196
5197
5198
5198
3701
3701
3702
3703
3704
3705
3706
3707
3708
3709
3710
3711
3712
3713
3714
3715
3716
3717
3718
3719
3720
3721
3722
3723
3724
3725
3726
3727
3728
3729
3730
3730
3730
3730
3730
3730
3730
3730
3730
3730
3730
3730
3730
3730
3730
5141
5141
5141
5141
5141
5141
5141
5141
5163
5163
5163
5163
5163
5163
5163
5163
5163
5163
5163
5164
5165
5166
5167
5168
5169
5170
5171
5172
5173
5174
5175
5176
5177
5178
5178
5178
5178
5178
5178
5178
5178
5192
5192
5192
5192
5192
5192
5192
5193
5194
5195
5196
5197
5198
5198
3801
3801
3802
3803
3804
3805
3806
3807
3808
3809
3810
3811
3812
3813
3814
3815
3816
3817
3818
3819
3820
3821
3822
3823
3824
3825
3826
3827
3828
3829
3830
3830
3830
3830
3830
3830
3830
3830
3830
3830
3830
3830
3830
3830
5141
5141
5141
5141
5141
5141
5141
5141
5141
5163
5163
5163
5163
5163
5163
5163
5163
5163
5163
5163
5164
5165
5166
5167
5168
5169
5170
5171
5172
5173
5174
5175
5176
5177
5178
5178
5178
5178
5178
5178
5178
5178
5192
5192
5192
5192
5192
5192
5192
5193
5194
5195
5196
5197
5198
5198
3901
3901
3902
3903
3904
3905
3906
3907
3908
3909
3910
3911
3912
3913
3914
3915
3916
3917
3918
3919
3920
3921
3922
3923
3924
3925
3926
3927
3928
3929
3930
3930
3930
3930
3930
3930
3930
3930
3930
3930
3930
3930
3930
5141
5141
5141
5141
5141
5141
5141
5141
5141
5141
5163
5163
5163
5163
5163
5163
5163
5163
5163
5163
5163
5164
5165
5166
5167
5168
5169
5170
5171
5172
5173
5174
5175
5176
5177
5178
5178
5178
5178
5178
5178
5178
5178
5192
5192
5192
5192
5192
5192
5192
5193
5194
5195
5196
5197
5198
5198
4001
4001
4002
4003
4004
4005
4006
4007
4008
4009
4010
4011
4012
4013
4014
4015
4016
4017
4018
4019
4020
4021
4022
4023
4024
4025
4026
4027
4028
4029
4030
4030
4030
4030
4030
4030
4030
4030
4030
4030
4030
4030
5141
5141
5141
5141
5141
5141
5141
5141
5141
5141
5141
5163
5163
5163
5163
5163
5163
5163
5163
5163
5163
5163
5164
5165
5166
5167
5168
5169
5170
5171
5172
5173
5174
5175
5176
5177
5178
5178
5178
5178
5178
5178
5178
5178
5192
5192
5192
5192
5192
5192
5192
5193
5194
5195
5196
5197
5198
5198
4101
4101
4102
4103
4104
4105
4106
4107
4108
4109
4110
4111
4112
4113
4114
4115
4116
4117
4118
4119
4120
4121
4122
4123
4124
4125
4126
4127
4128
4129
4130
4130
4130
4130
4130
4130
4130
4130
4130
4130
4130
5141
5141
5141
5141
5141
5141
5141
5141
5141
5141
5141
5141
5163
5163
5163
5163
5163
5163
5163
5163
5163
5163
5163
5164
5165
5166
5167
5168
5169
5170
5171
5172
5173
5174
5175
5176
5177
5178
5178
5178
5178
5178
5178
5178
5178
5192
5192
5192
5192
5192
5192
5192
5193
5194
5195
5196
5197
5198
5198
4201
4201
4202
4203
4204
4205
4206
4207
4208
4209
4210
4211
4212
4213
4214
4215
4216
4217
4218
4219
4220
4221
4222
4223
4224
4225
4226
4227
4228
4229
4230
4230
4230
4230
4230
4230
4230
4230
4230
4230
5140
5141
5141
5141
5141
5141
5141
5141
5141
5141
5141
5141
5141
5163
5163
5163
5163
5163
5163
5163
5163
5163
5163
5163
5164
5165
5166
5167
5168
5169
5170
5171
5172
5173
5174
5175
5176
5177
5178
5178
5178
5178
5178
5178
5178
5178
5192
5192
5192
5192
5192
5192
5192
5193
5194
5195
5196
5197
5198
5198
4301
4301
4302
4303
4304
4305
4306
4307
4308
4309
4310
4311
4312
4313
4314
4315
4316
4317
4318
4319
4320
4321
4322
4323
4324
4325
4326
4327
4328
4329
4330
4330
4330
4330
4330
4330
4330
4330
4330
5139
5140
5141
5141
5141
5141
5141
5141
5141
5141
5141
5141
5141
5141
5163
5163
5163
5163
5163
5163
5163
5163
5163
5163
5163
5164
5165
5166
5167
5168
5169
5170
5171
5172
5173
5174
5175
5176
5177
5178
5178
5178
5178
5178
5178
5178
5178
5192
5192
5192
5192
5192
5192
5192
5193
5194
5195
5196
5197
5198
5198
4401
4401
4402
4403
4404
4405
4406
4407
4408
4409
4410
4411
4412
4313
4314
4315
4416
4417
4418
4419
4420
4421
4422
4423
4424
4425
4426
4427
4428
4429
4430
4430
4430
4430
4430
4430
4430
4430
5138
5139
5140
5141
5141
5141
5141
5141
5141
5141
5141
5141
5141
5141
5141
5163
5163
5163
5163
5163
5163
5163
5163
5163
5163
5163
5164
5165
5166
5167
5168
5169
5170
5171
5172
5173
5174
5175
5176
5177
5178
5178
5178
5178
5178
5178
5178
5178
5192
5192
5192
5192
5192
5192
5192
5193
5194
5195
5196
5197
5198
5198
4501
4501
4502
4503
4504
4505
4506
4507
4508
4509
4510
4511
4512
4512
4514
4515
4516
4517
4518
4519
4520
4521
4522
4523
4524
4525
4526
4527
4528
4529
4530
4530
4530
4530
4530
4530
4530
5137
5138
5139
5140
5141
5141
5141
5141
5141
5141
5141
5141
5141
5141
5141
5141
5163
5163
5163
5163
5163
5163
5163
5163
5163
5163
5163
5164
5165
5166
5167
5168
5169
5170
5171
5172
5173
5174
5175
5176
5177
5178
5178
5178
5178
5178
5178
5178
5178
5192
5192
5192
5192
5192
5192
5192
5193
5194
5195
5196
5197
5198
5198
4601
4601
4602
4603
4604
4605
4606
4607
4608
4609
4610
4611
4612
4612
4614
4615
4616
4617
4618
4619
4620
4621
4622
4623
4624
4625
4626
4627
4628
4629
4630
4630
4630
4630
4630
4630
5136
5137
5138
5139
5140
5141
5141
5141
5141
5141
5141
5141
5141
5141
5141
5141
5141
5163
5163
5163
5163
5163
5163
5163
5163
5163
5163
5163
5164
5165
5166
5167
5168
5169
5170
5171
5172
5173
5174
5175
5176
5177
5178
5178
5178
5178
5178
5178
5178
5178
5192
5192
5192
5192
5192
5192
5192
5193
5194
5195
5196
5197
5198
5198
4701
4701
4702
4703
4704
4705
4706
4707
4708
4709
4710
4711
4712
4712
4714
4715
4716
4717
4718
4719
4720
4721
4722
4723
4724
4725
4726
4727
4728
4729
4730
4730
4730
4730
4730
5135
5136
5137
5138
5139
5140
5141
5141
5141
5141
5141
5141
5141
5141
5141
5141
5141
5141
5163
5163
5163
5163
5163
5163
5163
5163
5163
5163
5163
5164
5165
5166
5167
5168
5169
5170
5171
5172
5173
5174
5175
5176
5177
5178
5178
5178
5178
5178
5178
5178
5178
5192
5192
5192
5192
5192
5192
5192
5193
5194
5195
5196
5197
5198
5198
4801
4801
4802
4803
4804
4805
4806
4807
4808
4809
4810
4811
4812
4812
4814
4815
4816
4817
4818
4819
4820
4821
4822
4823
4824
4825
4826
4827
4828
4829
4830
4830
4830
4830
5134
5135
5136
5137
5138
5139
5140
5141
5141
5141
5141
5141
5141
5141
5141
5141
5141
5141
5141
5163
5163
5163
5163
5163
5163
5163
5163
5163
5163
5163
5164
5165
5166
5167
5168
5169
5170
5171
5172
5173
5174
5175
5176
5177
5178
5178
5178
5178
5178
5178
5178
5178
5192
5192
5192
5192
5192
5192
5192
5193
5194
5195
5196
5197
5198
5198
4901
4901
4902
4903
4904
4905
4906
4907
4908
4909
4910
4911
4912
4912
4914
4915
4916
4917
4918
4919
4920
4921
4922
4923
4924
4925
4926
4927
4928
4929
4930
4930
4930
5133
5134
5135
5136
5137
5138
5139
5140
5141
5141
5141
5141
5141
5141
5141
5141
5141
5141
5141
5141
5163
5163
5163
5163
5163
5163
5163
5163
5163
5163
5163
5164
5165
5166
5167
5168
5169
5170
5171
5172
5173
5174
5175
5176
5177
5178
5178
5178
5178
5178
5178
5178
5178
5192
5192
5192
5192
5192
5192
5192
5193
5194
5195
5196
5197
5198
5198
5001
5001
5002
5003
5004
5005
5006
5007
5008
5009
5010
5011
5012
5012
5014
5015
5016
5017
5018
5019
5020
5021
5022
5023
5024
5025
5026
5027
5028
5029
5030
5030
5132
5133
5134
5135
5136
5137
5138
5139
5140
5141
5141
5141
5141
5141
5141
5141
5141
5141
5141
5141
6152
5163
5163
5163
5163
5163
5163
5163
5163
5163
5163
5163
5164
5165
5166
5167
5168
5169
5170
5171
5172
5173
5174
5175
5176
5177
5178
5178
5178
5178
5178
5178
5178
5178
5192
5192
5192
5192
5192
5192
5192
5193
5194
5195
5196
5197
5198
5198
5101
5101
5102
5103
5104
5105
5106
5107
5108
5109
5110
5111
5112
5112
5114
5115
5116
5117
5118
5119
5120
5121
5122
5123
5124
5125
5126
5127
5128
5129
5130
5131
5132
5133
5134
5135
5136
5137
5138
5139
5140
5141
5141
5141
5141
5141
5141
5141
5141
5141
5141
5141
6152
5163
5163
5163
5163
5163
5163
5163
5163
5163
5163
5163
5164
5165
5166
5167
5168
5169
5170
5171
5172
5173
5174
5175
5176
5177
5178
5178
5178
5178
5178
5178
5178
5178
5192
5192
5192
5192
5192
5192
5192
5193
5194
5195
5196
5197
5198
5198
5201
5201
5202
5203
5204
5205
5206
5207
5208
5209
5210
5211
5212
5212
5214
5215
5216
5217
5218
5219
5220
5221
5222
5223
5224
5225
5226
5227
5228
5229
5230
5231
5232
5233
5234
5235
5236
5237
5238
5239
5240
5241
5241
5241
5241
5241
5241
5241
5241
5241
5241
6151
6152
6153
5263
5263
5263
5263
5263
5263
5263
5263
5263
5263
5264
5265
5266
5267
5268
5269
5270
5271
5272
5273
5274
5275
5276
5277
5278
5278
5278
5278
5278
5278
5278
5278
5292
5292
5292
5292
5292
5292
5292
5293
5294
5295
5296
5297
5298
5298
5301
5301
5302
5303
5304
5305
5306
5307
5308
5309
5310
5311
5312
5312
5314
5315
5316
5317
5318
5319
5320
5321
5322
5323
5324
5325
5326
5327
5328
5329
5330
5331
5332
5333
5334
5335
5336
5337
5338
5339
5340
5341
5341
5341
5341
5341
5341
5341
5341
5341
6150
6151
6152
6153
6154
5363
5363
5363
5363
5363
5363
5363
5363
5363
5364
5365
5366
5367
5368
5369
5370
5371
5372
5373
5374
5375
5376
5377
5378
5378
5378
5378
5378
5378
5378
5378
5392
5392
5392
5392
5392
5392
5392
5393
5394
5395
5396
5397
5398
5398
5401
5401
5402
5403
5404
5405
5406
5407
5408
5409
5410
5411
5412
5412
5414
5415
5416
5417
5418
5419
5420
5421
5422
5423
5424
5425
5426
5427
5428
5429
5430
5431
5432
5433
5434
5435
5436
5437
5438
5439
5440
5441
5441
5441
5441
5441
5441
5441
5441
6149
6150
6151
6152
6153
6154
6155
5463
5463
5463
5463
5463
5463
5463
5463
5464
5465
5466
5467
5468
5469
5470
5471
5472
5473
5474
5475
5476
5477
5478
5478
5478
5478
5478
5478
5478
5478
5492
5492
5492
5492
5492
5492
5492
5493
5494
5495
5496
5497
5498
5498
5501
5501
5502
5503
5504
5505
5506
5507
5508
5509
5510
5511
5512
5512
5514
5515
5516
5517
5518
5519
5520
5521
5522
5523
5524
5525
5526
5527
5528
5529
5530
5531
5532
5533
5534
5535
5536
5537
5538
5539
5540
5541
5541
5541
5541
5541
5541
5541
6148
6149
6150
6151
6152
6153
6154
6155
6156
5563
5563
5563
5563
5563
5563
5563
5564
5565
5566
5567
5568
5569
5570
5571
5572
5573
5574
5575
5576
5577
5578
5578
5578
5578
5578
5578
5578
5578
5592
5592
5592
5592
5592
5592
5592
5593
5594
5595
5596
5597
5598
5598
5601
5601
5602
5603
5604
5605
5606
5607
5608
5609
5610
5611
5612
5612
5614
5615
5616
5617
5618
5619
5620
5621
5622
5623
5624
5625
5626
5627
5628
5629
5630
5631
5632
5633
5634
5635
5636
5637
5638
5639
5640
5641
5641
5641
5641
5641
5641
6147
6148
6149
6150
6151
6152
6153
6154
6155
6156
6157
5663
5663
5663
5663
5663
5663
5664
5665
5666
5667
5668
5669
5670
5671
5672
5673
5674
5675
5676
5677
5678
5678
5678
5678
5678
5678
5678
5678
5692
5692
5692
5692
5692
5692
5692
5693
5694
5695
5696
5697
5698
5698
5701
5701
5702
5703
5704
5705
5706
5707
5708
5709
5710
5711
5712
5712
5714
5715
5716
5717
5718
5719
5720
5721
5722
5723
5724
5725
5726
5727
5728
5729
5730
5731
5732
5733
5734
5735
5736
5737
5738
5739
5740
5741
5741
5741
5741
5741
6146
6147
6148
6149
6150
6151
6152
6153
6154
6155
6156
6157
6158
5763
5763
5763
5763
5763
5764
5765
5766
5767
5768
5769
5770
5771
5772
5773
5774
5775
5776
5777
5778
5778
5778
5778
5778
5778
5778
5778
5792
5792
5792
5792
5792
5792
5792
5793
5794
5795
5796
5797
5798
5798
5801
5801
5802
5803
5804
5805
5806
5807
5808
5809
5810
5811
5812
5812
5814
5815
5816
5817
5818
5819
5820
5821
5822
5823
5824
5825
5826
5827
5828
5829
5830
5831
5832
5833
5834
5835
5836
5837
5838
5839
5840
5841
5841
5841
5841
6145
6146
6147
6148
6149
6150
6151
6152
6153
6154
6155
6156
6157
6158
6159
5863
5863
5863
5863
5864
5865
5866
5867
5868
5869
5870
5871
5872
5873
5874
5875
5876
5877
5878
5878
5878
5878
5878
5878
5878
5878
5892
5892
5892
5892
5892
5892
5892
5893
5894
5895
5896
5897
5898
5898
5901
5901
5902
5903
5904
5905
5906
5907
5908
5909
5910
5911
5912
5912
5914
5915
5916
5917
5918
5919
5920
5921
5922
5923
5924
5925
5926
5927
5928
5929
5930
5931
5932
5933
5934
5935
5936
5937
5938
5939
5940
5941
5941
5941
6144
6145
6146
6147
6148
6149
6150
6151
6152
6153
6154
6155
6156
6157
6158
6159
6160
5963
5963
5963
5964
5965
5966
5967
5968
5969
5970
5971
5972
5973
5974
5975
5976
5977
5978
5978
5978
5978
5978
5978
5978
5978
5992
5992
5992
5992
5992
5992
5992
5993
5994
5995
5996
5997
5998
5998
6001
6001
6002
6003
6004
6005
6006
6007
6008
6009
6010
6011
6012
6012
6014
6015
6016
6017
6018
6019
6020
6021
6022
6023
6024
6025
6026
6027
6028
6029
6030
6031
6032
6033
6034
6035
6036
6037
6038
6039
6040
6041
6041
6143
6144
6145
6146
6147
6148
6149
6150
6151
6152
6153
6154
6155
6156
6157
6158
6159
6160
6161
6063
6063
6064
6065
6066
6067
6068
6069
6070
6071
6072
6073
6074
6075
6076
6077
6078
6078
6078
6078
6078
6078
6078
6685
6092
6092
6092
6092
6092
6092
6092
6093
6094
6095
6096
6097
6098
6098
6101
6101
6102
6103
6104
6105
6106
6107
6108
6109
6110
6111
6112
6112
6114
6115
6116
6117
6118
6119
6120
6121
6122
6123
6124
6125
6126
6127
6128
6129
6130
6131
6132
6133
6134
6135
6136
6137
6138
6139
6140
6141
6142
6143
6144
6145
6146
6147
6148
6149
6150
6151
6152
6153
6154
6155
6156
6157
6158
6159
6160
6161
6162
6163
6164
6165
6166
6167
6168
6169
6170
6171
6172
6173
6174
6175
6176
6177
6178
6178
6178
6178
6178
6178
6684
6685
6686
6192
6192
6192
6192
6192
6192
6193
6194
6195
6196
6197
6198
6198
6201
6201
6202
6203
6204
6205
6206
6207
6208
6209
6210
6211
6212
6212
6214
6215
6216
6217
6218
6219
6220
6221
6222
6223
6224
6225
6226
6227
6228
6229
6230
6231
6232
6233
6234
6235
6236
6237
6238
6239
6240
6241
6242
6243
6244
6245
6246
6247
6248
6249
6250
6251
6252
6253
6254
6255
6256
6257
6258
6259
6260
6261
6262
6263
6264
6265
6266
6267
6268
6269
6270
6271
6272
6273
6274
6275
6276
6277
6278
6278
6278
6278
6278
6683
6684
6685
6686
6687
6292
6292
6292
6292
6292
6293
6294
6295
6296
6297
6298
6298
6301
6301
6302
6303
6304
6305
6306
6307
6308
6309
6310
6311
6312
6312
6314
6315
6316
6317
6318
6319
6320
6321
6322
6323
6324
6325
6326
6327
6328
6329
6330
6331
6332
6333
6334
6335
6336
6337
6338
6339
6340
6341
6342
6343
6344
6345
6346
6347
6348
6349
6350
6351
6352
6353
6354
6355
6356
6357
6358
6359
6360
6361
6362
6363
6364
6365
6366
6367
6368
6369
6370
6371
6372
6373
6374
6375
6376
6377
6378
6378
6378
6378
6682
6683
6684
6685
6686
6687
6688
6392
6392
6392
6392
6393
6394
6395
6396
6397
6398
6398
6401
6401
6402
6403
6404
6405
6406
6407
6408
6409
6410
6411
6412
6412
6414
6415
6416
6417
6418
6419
6420
6421
6422
6423
6424
6425
6426
6427
6428
6429
6430
6431
6432
6433
6434
6435
6436
6437
6438
6439
6440
6441
6442
6443
6444
6445
6446
6447
6448
6449
6450
6451
6452
6453
6454
6455
6456
6457
6458
6459
6460
6461
6462
6463
6464
6465
6466
6467
6468
6469
6470
6471
6472
6473
6474
6475
6476
6477
6478
6478
6478
6681
6682
6683
6684
6685
6686
6687
6688
6689
6492
6492
6492
6493
6494
6495
6496
6497
6498
6498
6501
6501
6502
6503
6504
6505
6506
6507
6508
6509
6510
6511
6512
6512
6514
6515
6516
6517
6518
6519
6520
6521
6522
6523
6524
6525
6526
6527
6528
6529
6530
6531
6532
6533
6534
6535
6536
6537
6538
6539
6540
6541
6542
6543
6544
6545
6546
6547
6548
6549
6550
6551
6552
6553
6554
6555
6556
6557
6558
6559
6560
6561
6562
6563
6564
6565
6566
6567
6568
6569
6570
6571
6572
6573
6574
6575
6576
6577
6578
6578
6680
6681
6682
6683
6684
6685
6686
6687
6688
6689
6690
6592
6592
6593
6594
6595
6596
6597
6598
6598
6601
6601
6602
6603
6604
6605
6606
6607
6608
6609
6610
6611
6612
6612
6614
6615
6616
6617
6618
6619
6620
6621
6622
6623
6624
6625
6626
6627
6628
6629
6630
6631
6632
6633
6634
6635
6636
6637
6638
6639
6640
6641
6642
6643
6644
6645
6646
6647
6648
6649
6650
6651
6652
6653
6654
6655
6656
6657
6658
6659
6660
6661
6662
6663
6664
6665
6666
6667
6668
6669
6670
6671
6672
6673
6674
6675
6676
6677
6678
6679
6680
6681
6682
6683
6684
6685
6686
6687
6688
6689
6690
6691
6692
6693
6694
6695
6696
6697
6698
6698
6701
6701
6702
6703
6704
6705
6706
6707
6708
6709
6710
6711
6712
6712
6714
6715
6716
6717
6718
6719
6720
6721
6722
6723
6724
6725
6726
6727
6728
6729
6730
6731
6732
6733
6734
6735
6736
6737
6738
6739
6740
6741
6742
6743
6744
6745
6746
6747
6748
6749
6750
6751
6752
6753
6754
6755
6756
6757
6758
6759
6760
6761
6762
6763
6764
6765
6766
6767
6768
6769
6770
6771
6772
6773
6774
6775
6776
6777
6778
6779
6780
6781
6782
6783
6784
6785
6786
6787
6788
6789
6790
6791
6792
6793
6794
6795
6796
6797
6798
6798
6801
6801
6802
6803
6804
6805
6806
6807
6808
6809
6810
6811
6812
6812
6814
6815
6816
6817
6818
6819
6820
6821
6822
6823
6824
6825
6826
6827
6828
6829
6830
6831
6832
6833
6834
6835
6836
6837
6838
6839
6840
6841
6842
6843
6844
6845
6846
6847
6848
6849
6850
6851
6852
6853
6854
6855
6856
6857
6858
6859
6860
6861
6862
6863
6864
6865
6866
6867
6868
6869
6870
6871
6872
6873
6874
6875
6876
6877
6878
6879
6880
6881
6882
6883
6884
6885
6886
6887
6888
6889
6890
6891
6892
6893
6894
6895
6896
6897
6898
6898
6901
6901
6902
6903
6904
6905
6906
6907
6908
6909
6910
6911
6912
6912
6914
6915
6916
6917
6918
6919
6920
6921
6922
6923
6924
6925
6926
6927
6928
6929
6930
6931
6932
6933
6934
6935
6936
6937
6938
6939
6940
6941
6942
6943
6944
6945
6946
6947
6948
6949
6950
6951
6952
6953
6954
6955
6956
6957
6958
6959
6960
6961
6962
6963
6964
6965
6966
6967
6968
6969
6970
6971
6972
6973
6974
6975
6976
6977
6978
6979
6980
6981
6982
6983
6984
6985
6986
6987
6988
6989
6990
6991
6992
6993
6994
6995
6996
6997
6998
6998
7001
7001
7002
7003
7004
7005
7006
7007
7008
7009
7010
7011
7012
7012
7014
7015
7016
7017
7018
7019
7020
7021
7022
7023
7024
7025
7026
7027
7028
7029
7030
7031
7032
7033
7034
7035
7036
7037
7038
7039
7040
7041
7042
7043
7044
7045
7046
7047
7048
7049
7050
7051
7052
7053
7054
7055
7056
7057
7058
7059
7060
7061
7062
7063
7064
7065
7066
7067
7068
7069
7070
7071
7072
7073
7074
7075
7076
7077
7078
7079
7080
7081
7082
7083
7084
7085
7086
7087
7088
7089
7090
7091
7092
7093
7094
7095
7096
7097
7098
7098
7101
7101
7102
7103
7104
7105
7106
7107
7108
7109
7110
7111
7112
7112
7114
7115
7116
7117
7118
7119
7120
7121
7122
7123
7124
7125
7126
7127
7128
7129
7130
7131
7132
7133
7134
7135
7136
7137
7138
7139
7140
7141
7142
7143
7144
7145
7146
7147
7148
7149
7150
7151
7152
7153
7154
7155
7156
7157
7158
7159
7160
7161
7162
7163
7164
7165
7166
7167
7168
7169
7170
7171
7172
7173
7174
7175
7176
7177
7178
7179
7180
7181
7182
7183
7184
7185
7186
7187
7188
7189
7190
7191
7192
7193
7194
7195
7196
7197
7198
7198
7201
7201
7202
7203
7204
7205
7206
7207
7208
7209
7210
7211
7212
7212
7214
7215
7216
7217
7218
7219
7220
7221
7222
7223
7224
7225
7226
7227
7228
7229
7230
7231
7232
7233
7234
7235
7236
7237
7238
7239
7240
7241
7242
7243
7244
7245
7246
7247
7248
7249
7250
7251
7252
7253
7254
7255
7256
7257
7258
7259
7260
7261
7262
7263
7264
7265
7266
7267
7268
7269
7270
7271
7272
7273
7274
7275
7276
7277
7278
7179
7180
7181
7182
7183
7184
7185
7186
7187
7188
7189
7190
7191
7192
7293
7294
7295
7296
7297
7298
7298
7301
7301
7302
7303
7304
7305
7306
7307
7308
7309
7310
7311
7312
7312
7314
7315
7316
7317
7318
7319
7320
7321
7322
7323
7324
7325
7326
7327
7328
7329
7330
7331
7332
7333
7334
7335
7336
7337
7338
7339
7340
7341
7342
7343
7344
7345
7346
7347
7348
7349
7350
7351
7352
7353
7354
7355
7356
7357
7358
7359
7360
7361
7362
7363
7364
7365
7366
7367
7368
7369
7370
7371
7372
7373
7374
7375
7376
7377
7378
7378
7180
7181
7182
7183
7184
7185
7186
7187
7188
7189
7190
7191
7393
7393
7394
7395
7396
7397
7398
7398
7401
7401
7402
7403
7404
7405
7406
7407
7408
7409
7410
7411
7412
7412
7314
7315
7316
7317
7318
7319
7320
7321
7322
7323
7324
7325
7326
7327
7328
7329
7330
7331
7332
7333
7334
7335
7436
7437
7438
7439
7440
7441
7442
7443
7444
7445
7446
7447
7448
7449
7450
7451
7452
7453
7454
7455
7456
7457
7458
7459
7460
7461
7462
7463
7464
7465
7466
7467
7468
7469
7470
7471
7472
7473
7474
7475
7476
7477
7478
7478
7478
7181
7182
7183
7184
7185
7186
7187
7188
7189
7190
7493
7493
7493
7494
7495
7496
7497
7498
7498
7501
7501
7502
7503
7504
7505
7506
7507
7508
7509
7510
7511
7512
7512
7314
7315
7316
7317
7318
7319
7320
7321
7322
7323
7324
7325
7326
7327
7328
7329
7330
7331
7332
7333
7334
7536
7536
7537
7538
7539
7540
7541
7542
7543
7544
7545
7546
7547
7548
7549
7550
7551
7552
7553
7554
7555
7556
7557
7558
7559
7560
7561
7562
7563
7564
7565
7566
7567
7568
7569
7570
7571
7572
7573
7574
7575
7576
7577
7578
7578
7578
7578
7182
7183
7184
7185
7186
7187
7188
7189
7593
7593
7593
7593
7594
7595
7596
7597
7598
7598
7601
7601
7602
7603
7604
7605
7606
7607
7608
7609
7610
7611
7612
7612
7612
7315
7316
7317
7318
7319
7320
7321
7322
7323
7324
7325
7326
7327
7328
7329
7330
7331
7332
7333
7636
7636
7636
7637
7638
7639
7640
7641
7642
7643
7644
7645
7646
7647
7648
7649
7650
7651
7652
7653
7654
7655
7656
7657
7658
7659
7660
7661
7662
7663
7664
7665
7666
7667
7668
7669
7670
7671
7672
7673
7674
7675
7676
7677
7678
7678
7678
7678
7678
7183
7184
7185
7186
7187
7188
7693
7693
7693
7693
7693
7694
7695
7696
7697
7698
7698
7701
7701
7702
7703
7704
7705
7706
7707
7708
7709
7710
7711
7712
7712
7712
7712
7316
7317
7318
7319
7320
7321
7322
7323
7324
7325
7326
7327
7328
7329
7330
7331
7332
7736
7736
7736
7736
7737
7738
7739
7740
7741
7742
7743
7744
7745
7746
7747
7748
7749
7750
7751
7752
7753
7754
7755
7756
7757
7758
7759
7760
7761
7762
7763
7764
7765
7766
7767
7768
7769
7770
7771
7772
7773
7774
7775
7776
7777
7778
7778
7778
7778
7778
7778
7184
7185
7186
7187
7793
7793
7793
7793
7793
7793
7794
7795
7796
7797
7798
7798
7801
7801
7802
7803
7804
7805
7806
7807
7808
7809
7810
7811
7812
7812
7812
7812
7812
7317
7318
7319
7320
7321
7322
7323
7324
7325
7326
7327
7328
7329
7330
7331
7836
7836
7836
7836
7836
7837
7838
7839
7840
7841
7842
7843
7844
7845
7846
7847
7848
7849
7850
7851
7852
7853
7854
7855
7856
7857
7858
7859
7860
7861
7862
7863
7864
7865
7866
7867
7868
7869
7870
7871
7872
7873
7874
7875
7876
7877
7878
7878
7878
7878
7878
7878
7878
7185
7186
7893
7893
7893
7893
7893
7893
7893
7894
7895
7896
7897
7898
7898
7901
7901
7902
7903
7904
7905
7906
7907
7908
7909
7910
7911
7912
7912
7912
7912
7912
7912
7318
7319
7320
7321
7322
7323
7324
7325
7326
7327
7328
7329
7330
7936
7936
7936
7936
7936
7936
7937
7938
7939
7940
7941
7942
7943
7944
7945
7946
7947
7948
7949
7950
7951
7952
7953
7954
7955
7956
7957
7958
7959
7960
7961
7962
7963
7964
7965
7966
7967
7968
7969
7970
7971
7972
7973
7974
7975
7976
7977
7978
7978
7978
7978
7978
7978
7978
7978
7993
7993
7993
7993
7993
7993
7993
7993
7994
7995
7996
7997
7998
7998
8001
8001
8002
8003
8004
8005
8006
8007
8008
8009
8010
8011
8012
8012
8012
8012
8012
8012
8518
8519
8520
8521
8522
8523
8524
8525
8526
8527
8528
8529
8530
8036
8036
8036
8036
8036
8036
8037
8038
8039
8040
8041
8042
8043
8044
8045
8046
8047
8048
8049
8050
8051
8052
8053
8054
8055
8056
8057
8058
8059
8060
8061
8062
8063
8064
8065
8066
8067
8068
8069
8070
8071
8072
8073
8074
8075
8076
8077
8078
8078
8078
8078
8078
8078
8078
8078
8093
8093
8093
8093
8093
8093
8093
8093
8094
8095
8096
8097
8098
8098
8101
8101
8102
8103
8104
8105
8106
8107
8108
8109
8110
8111
8112
8112
8112
8112
8112
8517
8518
8519
8520
8521
8522
8523
8524
8525
8526
8527
8528
8529
8530
8531
8136
8136
8136
8136
8136
8137
8138
8139
8140
8141
8142
8143
8144
8145
8146
8147
8148
8149
8150
8151
8152
8153
8154
8155
8156
8157
8158
8159
8160
8161
8162
8163
8164
8165
8166
8167
8168
8169
8170
8171
8172
8173
8174
8175
8176
8177
8178
8178
8178
8178
8178
8178
8178
8178
8193
8193
8193
8193
8193
8193
8193
8193
8194
8195
8196
8197
8198
8198
8201
8201
8202
8203
8204
8205
8206
8207
8208
8209
8210
8211
8212
8212
8212
8212
8516
8517
8518
8519
8520
8521
8522
8523
8524
8525
8526
8527
8528
8529
8530
8531
8532
8236
8236
8236
8236
8237
8238
8239
8240
8241
8242
8243
8244
8245
8246
8247
8248
8249
8250
8251
8252
8253
8254
8255
8256
8257
8258
8259
8260
8261
8262
8263
8264
8265
8266
8267
8268
8269
8270
8271
8272
8273
8274
8275
8276
8277
8278
8278
8278
8278
8278
8278
8278
8278
8293
8293
8293
8293
8293
8293
8293
8293
8294
8295
8296
8297
8298
8298
8301
8301
8302
8303
8304
8305
8306
8307
8308
8309
8310
8311
8312
8312
8312
8515
8516
8517
8518
8519
8520
8521
8522
8523
8524
8525
8526
8527
8528
8529
8530
8531
8532
8533
8336
8336
8336
8337
8338
8339
8340
8341
8342
8343
8344
8345
8346
8347
8348
8349
8350
8351
8352
8353
8354
8355
8356
8357
8358
8359
8360
8361
8362
8363
8364
8365
8366
8367
8368
8369
8370
8371
8372
8373
8374
8375
8376
8377
8378
8378
8378
8378
8378
8378
8378
8378
8393
8393
8393
8393
8393
8393
8393
8393
8394
8395
8396
8397
8398
8398
8401
8401
8402
8403
8404
8405
8406
8407
8408
8409
8410
8411
8412
8412
8514
8515
8516
8517
8518
8519
8520
8521
8522
8523
8524
8525
8526
8527
8528
8529
8530
8531
8532
8533
8534
8436
8436
8437
8438
8439
8440
8441
8442
8443
8444
8445
8446
8447
8448
8449
8450
8451
8452
8453
8454
8455
8456
8457
8458
8459
8460
8461
8462
8463
8464
8465
8466
8467
8468
8469
8470
8471
8472
8473
8474
8475
8476
8477
8478
8478
8478
8478
8478
8478
8478
9085
9086
8493
8493
8493
8493
8493
8493
8493
8494
8495
8496
8497
8498
8498
8501
8501
8502
8503
8504
8505
8506
8507
8508
8509
8510
8511
8512
8512
8514
8515
8516
8517
8518
8519
8520
8521
8522
8523
8524
8525
8526
8527
8528
8529
8530
8531
8532
8533
8534
8535
8536
8537
8538
8539
8540
8541
8542
8543
8544
8545
8546
8547
8548
8549
8550
8551
8552
8553
8554
8555
8556
8557
8558
8559
8560
8561
8562
8563
8564
8565
8566
8567
8568
8569
8570
8571
8572
8573
8574
8575
8576
8577
8578
8578
8578
8578
8578
8578
9084
9085
9086
9087
8593
8593
8593
8593
8593
8593
8594
8595
8596
8597
8598
8598
8601
8601
8602
8603
8604
8605
8606
8607
8608
8609
8610
8611
8612
8612
8614
8615
8616
8617
8618
8619
8620
8621
8622
8623
8624
8625
8626
8627
8628
8629
8630
8631
8632
8633
8634
8635
8636
8637
8638
8639
8640
8641
8642
8643
8644
8645
8646
8647
8648
8649
8650
8651
8652
8653
8654
8655
8656
8657
8658
8659
8660
8661
8662
8663
8664
8665
8666
8667
8668
8669
8670
8671
8672
8673
8674
8675
8676
8677
8678
8678
8678
8678
8678
9084
9084
9085
9086
9087
9088
8693
8693
8693
8693
8693
8694
8695
8696
8697
8698
8698
8701
8701
8702
8703
8704
8705
8706
8707
8708
8709
8710
8711
8712
8712
8714
8715
8716
8717
8718
8719
8720
8721
8722
8723
8724
8725
8726
8727
8728
8729
8730
8731
8732
8733
8734
8735
8736
8737
8738
8739
8740
8741
8742
8743
8744
8745
8746
8747
8748
8749
8750
8751
8752
8753
8754
8755
8756
8757
8758
8759
8760
8761
8762
8763
8764
8765
8766
8767
8768
8769
8770
8771
8772
8773
8774
8775
8776
8777
8778
8778
8778
8778
9084
9084
9084
9085
9086
9087
9088
9089
8793
8793
8793
8793
8794
8795
8796
8797
8798
8798
8801
8801
8802
8803
8804
8805
8806
8807
8808
8809
8810
8811
8812
8812
8814
8815
8816
8817
8818
8819
8820
8821
8822
8823
8824
8825
8826
8827
8828
8829
8830
8831
8832
8833
8834
8835
8836
8837
8838
8839
8840
8841
8842
8843
8844
8845
8846
8847
8848
8849
8850
8851
8852
8853
8854
8855
8856
8857
8858
8859
8860
8861
8862
8863
8864
8865
8866
8867
8868
8869
8870
8871
8872
8873
8874
8875
8876
8877
8878
8878
8878
8878
9084
9084
9084
9085
9086
9087
9088
9089
9089
8893
8893
8893
8894
8895
8896
8897
8898
8898
8901
8901
8902
8903
8904
8905
8906
8907
8908
8909
8910
8911
8912
8912
8814
8815
8816
8817
8818
8819
8820
8821
8822
8823
8824
8825
8826
8827
8828
8829
8830
8831
8832
8833
8834
8835
8836
8837
8838
8839
8840
8841
8842
8843
8844
8845
8846
8847
8848
8849
8850
8851
8852
8853
8854
8855
8856
8857
8858
8859
8860
8861
8862
8863
8864
8865
8866
8867
8868
8869
8870
8871
8872
8873
8874
8875
8876
8877
8878
8878
8878
8878
9084
9084
9084
9085
9086
9087
9088
9089
9089
8893
8893
8893
8894
8895
8896
8897
8898
8898
9001
9001
9002
9003
9004
9005
9006
9007
9008
9009
9010
9011
9012
9012
9014
9015
9016
9017
9018
9019
9020
9021
9022
9023
9024
9025
9026
9027
9028
9029
9030
9031
9032
9033
9034
9035
9036
9037
9038
9039
9040
9041
9042
9043
9044
9044
8846
8847
8848
8849
8850
8851
8852
8853
8854
8855
8856
8857
8858
8859
8860
8861
8862
8863
8864
8865
8866
8867
8868
8869
8870
8871
8872
8873
8874
8875
8876
8877
8878
8878
8878
9084
9084
9084
9084
9085
9086
9087
9088
9089
9089
9089
8893
8893
8894
8895
8896
8897
8898
8898
9101
9101
9102
9103
9104
9105
9106
9107
9108
9109
9110
9111
9112
9112
9114
9115
9116
9117
9118
9119
9120
9121
9122
9123
9124
9125
9126
9127
9128
9129
9130
9131
9132
9133
9134
9135
9136
9137
9138
9139
9140
9141
9142
9143
9144
9144
9144
8847
8848
8849
8850
8851
8852
8853
8854
8855
8856
8857
8858
8859
8860
8861
8862
8863
8864
8865
8866
8867
8868
8869
8870
8871
8872
8873
8874
8875
8876
8877
8878
8878
8878
9184
9184
9184
9184
9185
9186
9187
9188
9189
9189
9189
9189
8893
8894
8895
8896
8897
8898
8898
9201
9201
9202
9203
9204
9205
9206
9207
9208
9209
9210
9211
9212
9212
9214
9215
9216
9217
9218
9219
9220
9221
9222
9223
9224
9225
9226
9227
9228
9229
9230
9231
9232
9233
9234
9235
9236
9237
9238
9239
9240
9241
9242
9243
9244
9244
9244
9244
8848
8849
8850
8851
8852
8853
8854
8855
8856
8857
8858
8859
8860
8861
8862
8863
8864
8865
8866
8867
8868
8869
8870
8871
8872
8873
8874
8875
8876
8877
8878
8878
9284
9284
9284
9284
9284
9285
9286
9287
9288
9289
9289
9289
9289
8893
8894
8895
8896
8897
8898
8898
9301
9301
9302
9303
9304
9305
9306
9307
9308
9309
9310
9311
9312
9312
9314
9315
9316
9317
9318
9319
9320
9321
9322
9323
9324
9325
9326
9327
9328
9329
9330
9331
9332
9333
9334
9335
9336
9337
9338
9339
9340
9341
9342
9343
9344
9344
9344
9344
9344
8849
8850
8851
8852
8853
8854
8855
8856
8857
8858
8859
8860
8861
8862
8863
8864
8865
8866
8867
8868
8869
8870
8871
8872
8873
8874
8875
8876
8877
8878
9384
9384
9384
9384
9384
9384
9385
9386
9387
9388
9389
9389
9389
9389
9389
8894
8895
8896
8897
8898
8898
9401
9401
9402
9403
9404
9405
9406
9407
9408
9409
9410
9411
9412
9413
9414
9415
9416
9417
9418
9419
9420
9421
9422
9423
9424
9425
9426
9427
9428
9429
9430
9431
9432
9433
9434
9435
9436
9437
9438
9439
9440
9441
9442
9443
9444
9444
9444
9444
9444
9444
8850
8851
8852
8853
8854
8855
8856
8857
8858
8859
8860
8861
8862
8863
8864
8865
8866
8867
8868
8869
8870
8871
8872
8873
8874
8875
8876
8877
8878
9484
9484
9484
9484
9484
9484
9485
9486
9487
9488
9489
9489
9489
9489
9489
9489
8895
8896
8897
8898
8898
9501
9501
9502
9503
9504
9505
9506
9507
9508
9509
9510
9511
9512
9513
9514
9515
9516
9517
9518
9519
9520
9521
9522
9523
9524
9525
9526
9527
9528
9529
9530
9531
9532
9533
9534
9535
9536
9537
9538
9539
9540
9541
9542
9543
9544
9544
9544
9544
9544
9544
9544
10151
10152
10153
10154
10155
10156
10157
10158
10159
10160
10161
10162
10163
10164
10165
10166
10167
10168
10169
10170
10171
10172
10173
10174
10175
10176
10177
9584
9584
9584
9584
9584
9584
9584
9585
9586
9587
9588
9589
9589
9589
9589
9589
9589
9589
8896
8897
8898
8898
9601
9601
9602
9603
9604
9605
9606
9607
9608
9609
9610
9611
9612
9613
9614
9615
9616
9617
9618
9619
9620
9621
9622
9623
9624
9625
9626
9627
9628
9629
9630
9631
9632
9633
9634
9635
9636
9637
9638
9639
9640
9641
9642
9643
9644
9644
9644
9644
9644
9644
10150
10151
10152
10153
10154
10155
10156
10157
10158
10159
10160
10161
10162
10163
10164
10165
10166
10167
10168
10169
10170
10171
10172
10173
10174
10175
10176
10177
10178
9684
9684
9684
9684
9684
9684
9685
9686
9687
9688
9689
9689
9689
9689
9689
9689
9689
9689
8897
8898
8898
9701
9701
9702
9703
9704
9705
9706
9707
9708
9709
9710
9711
9712
9713
9714
9715
9716
9717
9718
9719
9720
9721
9722
9723
9724
9725
9726
9727
9728
9729
9730
9731
9732
9733
9734
9735
9736
9737
9738
9739
9740
9741
9742
9743
9744
9744
9744
9744
9744
10149
10150
10151
10152
10153
10154
10155
10156
10157
10158
10159
10160
10161
10162
10163
10164
10165
10166
10167
10168
10169
10170
10171
10172
10173
10174
10175
10176
10177
10178
10179
9784
9784
9784
9784
9784
9785
9786
9787
9788
9789
9789
9789
9789
9789
9789
9789
9789
9789
8898
8898
9801
9801
9802
9803
9804
9805
9806
9807
9808
9809
9810
9811
9812
9813
9814
9815
9816
9817
9818
9819
9820
9821
9822
9823
9824
9825
9826
9827
9828
9829
9830
9831
9832
9833
9834
9835
9836
9837
9838
9839
9840
9841
9842
9843
9844
9844
9844
9844
10148
10149
10150
10151
10152
10153
10154
10155
10156
10157
10158
10159
10160
10161
10162
10163
10164
10165
10166
10167
10168
10169
10170
10171
10172
10173
10174
10175
10176
10177
10178
10179
10180
9884
9884
9884
9884
9885
9886
9887
9888
9889
9889
9889
9889
9889
9889
9889
9889
9889
9889
9889
9901
9901
9902
9903
9904
9905
9906
9907
9908
9909
9910
9911
9912
9913
9914
9915
9916
9917
9918
9919
9920
9921
9922
9923
9924
9925
9926
9927
9928
9929
9930
9931
9932
9933
9934
9935
9936
9937
9938
9939
9940
9941
9942
9943
9944
9944
9944
10147
10148
10149
10150
10151
10152
10153
10154
10155
10156
10157
10158
10159
10160
10161
10162
10163
10164
10165
10166
10167
10168
10169
10170
10171
10172
10173
10174
10175
10176
10177
10178
10179
10180
10181
9984
9984
9984
9985
9986
9987
9988
9989
9989
9989
9989
9989
9989
9989
9989
9989
9989
9989
10001
10001
10002
10003
10004
10005
10006
10007
10008
10009
10010
10011
10012
10013
10014
10015
10016
10017
10018
10019
10020
10021
10022
10023
10024
10025
10026
10027
10028
10029
10030
10031
10032
10033
10034
10035
10036
10037
10038
10039
10040
10041
10042
10043
10044
10044
10146
10147
10148
10149
10150
10151
10152
10153
10154
10155
10156
10157
10158
10159
10160
10161
10162
10163
10164
10165
10166
10167
10168
10169
10170
10171
10172
10173
10174
10175
10176
10177
10178
10179
10180
10181
10182
10084
10084
10085
10086
10087
10088
10089
10089
10089
10089
10089
10089
10089
10089
10089
10089
10089
10101
10101
10102
10103
10104
10105
10106
10107
10108
10109
10110
10111
10112
10113
10114
10115
10116
10117
10118
10119
10120
10121
10122
10123
10124
10125
10126
10127
10128
10129
10130
10131
10132
10133
10134
10135
10136
10137
10138
10139
10140
10141
10142
10143
10144
10145
10146
10147
10148
10149
10150
10151
10152
10153
10154
10155
10156
10157
10158
10159
10160
10161
10162
10163
10164
10165
10166
10167
10168
10169
10170
10171
10172
10173
10174
10175
10176
10177
10178
10179
10180
10181
10182
10183
10184
10185
10186
10187
10188
10189
10189
10189
10189
10189
10189
10189
10189
10189
10189
10189
10201
10201
10202
10203
10204
10205
10206
10207
10208
10209
10210
10211
10212
10213
10214
10215
10216
10217
10218
10219
10220
10221
10222
10223
10224
10225
10226
10227
10228
10229
10230
10231
10232
10233
10234
10235
10236
10237
10238
10239
10240
10241
10242
10243
10244
10245
10246
10247
10248
10249
10250
10251
10252
10253
10254
10255
10256
10257
10258
10259
10260
10261
10262
10263
10264
10265
10266
10267
10268
10269
10270
10271
10272
10273
10274
10275
10276
10277
10278
10279
10280
10281
10282
10283
10284
10285
10286
10287
10288
10289
10289
10289
10289
10289
10289
10289
10289
10289
10289
10289
10301
10301
10302
10303
10304
10305
10306
10307
10308
10309
10310
10311
10312
10313
10314
10315
10316
10317
10318
10319
10320
10321
10322
10323
10324
10325
10326
10327
10328
10329
10330
10331
10332
10333
10334
10335
10336
10337
10338
10339
10340
10341
10342
10343
10344
10345
10346
10347
10348
10349
10350
10351
10352
10353
10354
10355
10356
10357
10358
10359
10360
10361
10362
10363
10364
10365
10366
10367
10368
10369
10370
10371
10372
10373
10374
10375
10376
10377
10378
10379
10380
10381
10382
10383
10384
10385
10386
10387
10388
10389
10389
10389
10389
10389
10389
10389
10389
10389
10389
10389
10401
10401
10402
10403
10404
10405
10406
10407
10408
10409
10410
10411
10412
10413
10414
10415
10416
10417
10418
10419
10420
10421
10422
10423
10424
10425
10426
10427
10428
10429
10430
10431
10432
10433
10434
10435
10436
10437
10438
10439
10440
10441
10442
10443
10444
10445
10446
10447
10448
10449
10450
10451
10452
10453
10454
10455
10456
10457
10458
10459
10460
10461
10462
10463
10464
10465
10466
10467
10468
10469
10470
10471
10472
10473
10474
10475
10476
10477
10478
10479
10480
10481
10482
10483
10484
10485
10486
10487
10488
10489
10489
10489
10489
10489
10489
10489
10489
10489
10489
10489
10501
10501
10502
10503
10504
10505
10506
10507
10508
10509
10510
10511
10512
10513
10514
10515
10516
10517
10518
10519
10520
10521
10522
10523
10524
10525
10526
10527
10528
10529
10530
10531
10532
10533
10534
10535
10536
10537
10538
10539
10540
10541
10542
10543
10544
10545
10546
10547
10548
10549
10550
10551
10552
10553
10554
10555
10556
10557
10558
10559
10560
10561
10562
10563
10564
10565
10566
10567
10568
10569
10570
10571
10572
10573
10574
10575
10576
10577
10578
10579
10580
10581
10582
10583
10584
10585
10586
10587
10588
10589
10589
10589
10589
10589
10589
10589
10589
10589
10589
10589
10601
10601
10602
10603
10604
10605
10606
10607
10608
10609
10610
10611
10612
10613
10614
10615
10616
10617
10618
10619
10620
10621
10622
10623
10624
10625
10626
10627
10628
10629
10630
10631
10632
10633
10634
10635
10636
10637
10638
10639
10640
10641
10642
10643
10644
10645
10646
10647
10648
10649
10650
10651
10652
10653
10654
10655
10656
10657
10658
10659
10660
10661
10662
10663
10664
10665
10666
10667
10668
10669
10670
10671
10672
10673
10674
10675
10676
10677
10678
10679
10680
10681
10682
10683
10684
10685
10686
10687
10688
10689
10689
10689
10689
10689
10689
10689
10689
10689
10689
10689
10701
10701
10702
10703
10704
10705
10706
10707
10708
10709
10710
10711
10712
10713
10714
10715
10716
10717
10718
10719
10720
10721
10722
10723
10724
10725
10726
10727
10728
10729
10730
10731
10732
10733
10734
10735
10736
10737
10738
10739
10740
10741
10742
10743
10744
10745
10746
10747
10748
10749
10750
10751
10752
10753
10754
10755
10756
10757
10758
10759
10760
10761
10762
10763
10764
10765
10766
10767
10768
10769
10770
10771
10772
10773
10774
10775
10776
10777
10778
10779
10780
10781
10782
10783
10784
10785
10786
10787
10788
10789
10789
10789
10789
10789
10789
10789
10789
10789
10789
10789
10801
10801
10802
10803
10804
10805
10806
10807
10808
10809
10810
10811
10812
10713
10814
10815
10816
10817
10818
10819
10820
10821
10822
10823
10824
10825
10826
10827
10828
10829
10830
10831
10832
10833
10834
10835
10836
10837
10838
10839
10840
10841
10842
10843
10844
10845
10846
10847
10848
10849
10850
10851
10852
10853
10854
10855
10856
10857
10858
10859
10860
10861
10862
10863
10864
10865
10866
10867
10868
10869
10870
10871
10872
10873
10874
10875
10876
10877
10878
10879
10880
10881
10882
10883
10884
10885
10886
10887
10888
10889
10889
10889
10889
10889
10889
10889
10889
10889
10889
10889
10901
10901
10902
10903
10904
10905
10906
10907
10908
10909
10910
10911
10912
10912
10914
10915
10916
10917
10918
10919
10920
10921
10922
10923
10924
10925
10926
10927
10928
10929
10930
10931
10932
10933
10934
10935
10936
10937
10938
10939
10940
10941
10942
10943
10944
10945
10946
10947
10948
10949
10950
10951
10952
10953
10954
10955
10956
10957
10958
10959
10960
10961
10962
10963
10964
10965
10966
10967
10968
10969
10970
10971
10972
10973
10974
10975
10976
10977
10978
10979
10980
10981
10982
10983
10984
10985
10986
10987
10988
10989
10989
10989
10989
10989
10989
10989
10989
10989
10989
11898
10901
10901
10902
10903
10904
11005
11006
11007
11008
11009
11010
11011
10912
10912
10914
11015
11016
11017
11018
11019
11020
11021
11022
11023
11024
11025
11026
11027
11028
11029
11030
11031
11032
11033
11034
11035
11036
11037
11038
11039
11040
11041
11042
11043
11044
11045
11046
11047
11048
11049
11050
11051
11052
11053
11054
11055
11056
11057
11058
11059
11060
11061
11062
11063
11064
11065
11066
11067
11068
11069
11070
11071
11072
11073
11074
11075
11076
11077
11078
11079
11080
11081
11082
11083
11084
11085
11086
11087
11088
11089
11089
11089
11089
11089
11089
11089
11089
11089
11898
11898
11101
11101
11102
11103
11104
11105
11106
11107
11108
11109
11110
11111
11112
11112
11015
11015
11016
11117
11118
11119
11120
11121
11122
11123
11124
11125
11126
11127
11128
11129
11130
11131
11132
11133
11134
11135
11136
11137
11138
11139
11140
11141
11142
11143
11144
11145
11146
11147
11148
11149
11150
11151
11152
11153
11154
11155
11156
11157
11158
11159
11160
11161
11162
11163
11164
11165
11166
11167
11168
11169
11170
11171
11172
11173
11174
11175
11176
11177
11178
11179
11180
11181
11182
11183
11184
11185
11186
11187
11188
11189
11189
11189
11189
11189
11189
11189
11189
11897
11898
11898
11201
11201
11202
11203
11204
11205
11206
11207
11208
11209
11210
11211
11212
11212
11212
11015
11117
11117
11118
11219
11220
11221
11222
11223
11224
11225
11226
11227
11228
11229
11230
11231
11232
11233
11234
11235
11236
11237
11238
11239
11240
11241
11242
11243
11244
11245
11246
11247
11248
11249
11250
11251
11252
11253
11254
11255
11256
11257
11258
11259
11260
11261
11262
11263
11264
11265
11266
11267
11268
11269
11270
11271
11272
11273
11274
11275
11276
11277
11278
11279
11280
11281
11282
11283
11284
11285
11286
11287
11288
11289
11289
11289
11289
11289
11289
11289
11896
11897
11898
11898
11301
11301
11302
11303
11304
11305
11306
11307
11308
11309
11310
11311
11312
11312
11312
11117
11117
11117
11219
11219
11220
11221
11322
11323
11324
11325
11326
11327
11328
11329
11330
11331
11332
11333
11334
11335
11336
11337
11338
11339
11340
11341
11342
11343
11344
11345
11346
11347
11348
11349
11350
11351
11352
11353
11354
11355
11356
11357
11358
11359
11360
11361
11362
11363
11364
11365
11366
11367
11368
11369
11370
11371
11372
11373
11374
11375
11376
11377
11378
11379
11380
11381
11382
11383
11384
11385
11386
11387
11388
11389
11389
11389
11389
11389
11389
11895
11896
11897
11898
11898
11401
11401
11402
11403
11404
11405
11406
11407
11408
11409
11410
11411
11412
11412
11412
11412
11117
11219
11219
11219
11220
11322
11322
11323
11424
11425
11426
11427
11428
11429
11430
11431
11432
11433
11434
11435
11436
11437
11438
11439
11440
11441
11442
11443
11444
11445
11446
11447
11448
11449
11450
11451
11452
11453
11454
11455
11456
11457
11458
11459
11460
11461
11462
11463
11464
11465
11466
11467
11468
11469
11470
11471
11472
11473
11474
11475
11476
11477
11478
11479
11480
11481
11482
11483
11484
11485
11486
11487
11488
11489
11489
11489
11489
11489
11894
11895
11896
11897
11898
11898
11501
11501
11502
11503
11504
11505
11506
11507
11508
11509
11510
11511
11512
11512
11512
11512
11512
11219
11219
11219
11322
11322
11322
11424
11424
11425
11526
11527
11528
11529
11530
11531
11532
11533
11534
11535
11536
11537
11538
11539
11540
11541
11542
11543
11544
11545
11546
11547
11548
11549
11550
11551
11552
11553
11554
11555
11556
11557
11558
11559
11560
11561
11562
11563
11564
11565
11566
11567
11568
11569
11570
11571
11572
11573
11574
11575
11576
11577
11578
11579
11580
11581
11582
11583
11584
11585
11586
11587
11588
11589
11589
11589
11589
11893
11894
11895
11896
11897
11898
11898
11601
11601
11602
11603
11604
11605
11606
11607
11608
11609
11610
11611
11612
11612
11612
11612
11612
11219
11219
11219
11322
11322
11424
11424
11424
11526
11526
11627
11628
11629
11630
11631
11632
11633
11634
11635
11636
11637
11638
11639
11640
11641
11642
11643
11644
11645
11646
11647
11648
11649
11650
11651
11652
11653
11654
11655
11656
11657
11658
11659
11660
11661
11662
11663
11664
11665
11666
11667
11668
11669
11670
11671
11672
11673
11674
11675
11676
11677
11678
11679
11680
11681
11682
11683
11684
11685
11686
11687
11688
11689
11689
11689
11892
11893
11894
11895
11896
11897
11898
11898
11701
11701
11702
11703
11704
11705
11706
11707
11708
11709
11710
11711
11712
11712
11712
11712
11712
11712
11219
11219
11322
11322
11424
11925
11726
11726
11726
11727
11728
11729
11730
11731
11732
11733
11734
11735
11736
11737
11738
11739
11740
11741
11742
11643
11644
11645
11646
11647
11648
11649
11650
11651
11652
11653
11654
11655
11656
11657
11658
11659
11660
11661
11662
11663
11664
11665
11666
11667
11668
11669
11670
11671
11672
11673
11674
11675
11676
11677
11678
11679
11680
11681
11682
11683
11684
11685
11686
11687
11688
11689
11890
11891
11892
11893
11894
11895
11896
11897
11898
11898
11801
11801
11802
11803
11804
11805
11806
11807
11808
11809
11810
11811
11812
11812
11812
11812
11812
11812
11812
11322
12124
11925
11925
11925
11925
11826
11826
11827
11828
11829
11830
11831
11832
11833
11834
11835
11836
11837
11838
11839
11840
11841
11842
11843
11844
11845
11846
11847
11848
11849
11850
11851
11852
11853
11854
11855
11856
11857
11858
11859
11860
11861
11862
11863
11864
11865
11866
11867
11868
11869
11870
11871
11872
11873
11874
11875
11876
11877
11878
11879
11880
11881
11882
11883
11884
11885
11886
11887
11888
11889
11890
11891
11892
11893
11894
11895
11896
11897
11898
11898
11901
11901
11902
11903
11904
11905
11906
11907
11908
11909
11910
11911
11912
11912
11912
11912
11912
11912
11912
12124
12124
12124
12124
11925
11925
11925
11926
11927
11928
11929
11930
11931
11932
11933
11934
11935
11936
11937
11938
11939
11940
11941
11942
11943
11944
11945
11946
11947
11948
11949
11950
11951
11952
11953
11954
11955
11956
11957
11958
11959
11960
11961
11962
11963
11964
11965
11966
11967
11968
11969
11970
11971
11972
11973
11974
11975
11976
11977
11978
11979
11980
11981
11982
11983
11984
11985
11986
11987
11988
11989
11990
11991
11992
11993
11994
11995
11996
11997
11998
11998
12001
12001
12002
12003
12004
12005
12006
12007
12008
12009
12010
12011
12012
12012
12012
12012
12012
12012
12012
12124
12124
12124
12124
12124
12025
12025
12026
12027
12028
12029
12030
12031
12032
12033
12034
12035
12036
12037
12038
12039
12040
12041
12042
12043
12044
12045
12046
12047
12048
12049
12050
12051
12052
12053
12054
12055
12056
12057
12058
12059
12060
12061
12062
12063
12064
12065
12066
12067
12068
12069
12070
12071
12072
12073
12074
12075
12076
12077
12078
12079
12080
12081
12082
12083
12084
12085
12086
12087
12088
12089
12090
12091
12092
12093
12094
12095
12096
12097
12098
12098
12101
12101
12102
12103
12104
12105
12106
12107
12108
12109
12110
12111
12112
12112
12112
12112
12112
12112
12522
12124
12124
12124
12124
12124
12124
12125
12126
12127
12128
12129
12130
12131
12132
12133
12134
12135
12136
12137
12138
12139
12140
12141
12142
12143
12144
12145
12146
12147
12148
12149
12150
12151
12152
12153
12154
12155
12156
12157
12158
12159
12160
12161
12162
12163
12164
12165
12166
12167
12168
12169
12170
12171
12172
12173
12174
12175
12176
12177
12178
12179
12180
12181
12182
12183
12184
12185
12186
12187
12188
12189
12190
12191
12192
12193
12194
12195
12196
12197
12198
12198
12201
12201
12202
12203
12204
12205
12206
12207
12208
12209
12210
12211
12212
12212
12212
12212
12212
12212
12522
12522
12423
12423
12224
12224
12224
12225
12226
12227
12228
12229
12230
12231
12232
12233
12234
12235
12236
12237
12238
12239
12240
12241
12242
12243
12244
12245
12246
12247
12248
12249
12250
12251
12252
12253
12254
12255
12256
12257
12258
12259
12260
12261
12262
12263
12264
12265
12266
12267
12268
12269
12270
12271
12272
12273
12274
12275
12276
12277
12278
12279
12280
12281
12282
12283
12284
12285
12286
12287
12288
12289
12290
12291
12292
12293
12294
12295
12296
12297
12298
12298
12301
12301
12302
12303
12304
12305
12306
12307
12308
12309
12310
12311
12312
12312
12312
12312
12312
12312
12522
12522
12522
12423
12423
12324
12324
12325
12326
12327
12328
12329
12330
12331
12332
12333
12334
12335
12336
12337
12338
12339
12340
12341
12342
12343
12344
12345
12346
12347
12348
12349
12350
12351
12352
12353
12354
12355
12356
12357
12358
12359
12360
12361
12362
12363
12364
12365
12366
12367
12368
12369
12370
12371
12372
12373
12374
12375
12376
12377
12378
12379
12380
12381
12382
12383
12384
12385
12386
12387
12388
12389
12390
12391
12392
12393
12394
12395
12396
12397
12398
12398
12401
12401
12402
12403
12404
12405
12406
12407
12408
12409
12410
12411
12412
12412
12412
12412
12412
12412
12522
12522
12522
12522
12423
12423
12424
12425
12426
12427
12428
12429
12430
12431
12432
12433
12434
12435
12436
12437
12438
12439
12440
12441
12442
12443
12444
12445
12446
12447
12448
12449
12450
12451
12452
12453
12454
12455
12456
12457
12458
12459
12460
12461
12462
12463
12464
12465
12466
12467
12468
12469
12470
12471
12472
12473
12474
12475
12476
12477
12478
12479
12480
12481
12482
12483
12484
12485
12486
12487
12488
12489
12490
12491
12492
12493
12494
12495
12496
12497
12498
12498
12501
12501
12502
12503
12504
12505
12506
12507
12508
12509
12510
12511
12512
12512
12512
12512
12512
12512
12522
12522
12522
12522
12522
12523
12524
12525
12526
12527
12528
12529
12530
12531
12532
12533
12534
12535
12536
12537
12538
12539
12540
12541
12542
12543
12544
12545
12546
12547
12548
12549
12550
12551
12552
12553
12554
12555
12556
12557
12558
12559
12560
12561
12562
12563
12564
12565
12566
12567
12568
12569
12570
12571
12572
12573
12574
12575
12576
12577
12578
12579
12580
12581
12582
12583
12584
12585
12586
12587
12588
12589
12590
12591
12592
12593
12594
12595
12596
12597
12598
12598
12601
12601
12602
12603
12604
12605
12606
12607
12608
12609
12610
12611
12612
12612
12612
12612
12612
12821
12821
12821
12622
12622
12622
12623
12624
12625
12626
12627
12628
12629
12630
12631
12632
12633
12634
12635
12636
12637
12638
12639
12640
12641
12642
12643
12644
12645
12646
12647
12648
12649
12650
12651
12652
12653
12654
12655
12656
12657
12558
12559
12560
12561
12562
12563
12564
12565
12566
12567
12568
12569
12570
12571
12572
12573
12574
12575
12676
12677
12678
12679
12680
12681
12682
12683
12684
12685
12686
12687
12688
12689
12690
12691
12692
12693
12694
12695
12696
12697
12698
12698
12701
12701
12702
12703
12704
12705
12706
12707
12708
12709
12710
12711
12712
12712
12712
12712
12712
12821
12821
12821
12821
12722
12722
12723
12724
12725
12726
12727
12728
12729
12730
12731
12732
12733
12734
12735
12736
12737
12738
12739
12740
12741
12742
12743
12744
12745
12746
12747
12748
12749
12750
12751
12752
12753
12754
12755
12656
12657
12657
12559
12560
12561
12562
12563
12564
12565
12566
12567
12568
12569
12570
12571
12572
12573
12574
12676
12676
12777
12778
12779
12780
12781
12782
12783
12784
12785
12786
12787
12788
12789
12790
12791
12792
12793
12794
12795
12796
12797
12798
12798
12801
12801
12802
12803
12804
12805
12806
12807
12808
12809
12810
12811
12812
12812
12812
12812
12812
13020
13020
12821
12821
12821
12822
12823
12824
12825
12826
12827
12828
12829
12830
12831
12832
12833
12834
12835
12836
12837
12838
12839
12840
12841
12842
12843
12844
12845
12846
12847
12848
12849
12850
12851
12852
12853
12854
12755
12755
12657
12657
12657
12560
12561
12562
12563
12564
12565
12566
12567
12568
12569
12570
12571
12572
12573
12676
12676
12777
12777
12878
12879
12880
12881
12882
12883
12884
12885
12886
12887
12888
12889
12890
12891
12892
12893
12894
12895
12896
12897
12898
12898
12901
12901
12902
12903
12904
12905
12906
12907
12908
12909
12910
12911
12912
12912
12912
12912
12912
13020
13020
13020
12921
12921
12922
12923
12924
12925
12926
12927
12928
12929
12930
12931
12932
12933
12934
12935
12936
12937
12938
12939
12940
12941
12942
12943
12944
12945
12946
12947
12948
12949
12950
12951
12952
12953
12854
12854
12755
12755
12657
12657
12560
12561
12562
12563
12564
12565
12566
12567
12568
12569
12570
12571
12572
12573
12676
12777
12777
12878
12878
12979
12980
12981
12982
12983
12984
12985
12986
12987
12988
12989
12990
12991
12992
12993
12994
12995
12996
12997
12998
12998
13001
13001
13002
13003
13004
13005
13006
13007
13008
13009
13010
13011
13012
13012
13012
13012
13012
13020
13020
13020
13020
13021
13022
13023
13024
13025
13026
13027
13028
13029
13030
13031
13032
13033
13034
13035
13036
13037
13038
13039
13040
13041
13042
13043
13044
13045
13046
13047
12948
12949
12950
12951
12952
12953
12953
12854
12854
12755
12657
12657
12560
12561
12562
12563
12564
12565
12566
12567
12568
12569
12570
12571
12572
12573
12777
12777
12878
12878
12979
12979
13080
13081
13082
13083
13084
13085
13086
13087
13088
13089
13090
13091
13092
13093
13094
13095
13096
13097
13098
13098
13101
13101
13102
13103
13104
13105
13106
13107
13108
13109
13110
13111
13112
13112
13112
13112
13319
13319
13120
13120
13120
13121
13122
13123
13124
13125
13126
13127
13128
13129
13130
13131
13132
13133
13134
13135
13136
13137
13138
13139
13140
13141
13142
13143
13144
13145
13146
13147
13147
12949
12950
12951
12952
12953
12953
12953
12854
12854
12755
12657
12657
12561
12562
12563
12564
12565
12566
12567
12568
12569
12570
12571
12572
12777
12777
12878
12878
12979
13180
13180
13180
13181
13182
13183
13184
13185
13186
13187
13188
13189
13190
13191
13192
13193
13194
13195
13196
13197
13198
13198
13201
13201
13202
13203
13204
13205
13206
13207
13208
13209
13210
13211
13212
13212
13212
13212
13319
13319
13319
13220
13220
13221
13222
13223
13224
13225
13226
13227
13228
13229
13230
13231
13232
13233
13234
13235
13236
13237
13238
13239
13240
13241
13242
13243
13244
13245
13246
13247
13247
13247
12950
12951
12952
12953
12953
12953
12953
12854
12854
12657
12657
12561
12562
12563
12564
12565
12566
12567
12568
12569
12570
12571
12572
12777
12878
12878
13280
13280
13280
13280
13280
13281
13282
13283
13284
13285
13286
13287
13288
13289
13290
13291
13292
13293
13294
13295
13296
13297
13298
13298
13301
13301
13302
13303
13304
13305
13306
13307
13308
13309
13310
13311
13312
13312
13312
13312
13518
13319
13319
13319
13320
13321
13322
13323
13324
13325
13326
13327
13328
13329
13330
13331
13332
13333
13334
13335
13336
13337
13338
13339
13340
13341
13342
13343
13344
13345
13346
13347
13347
13347
13347
12951
12952
12953
12953
12953
12953
12953
12854
12854
12657
12561
12562
12563
12564
12565
12566
12567
12568
12569
12570
12571
12777
13380
13380
13380
13380
13380
13380
13380
13380
13381
13382
13383
13384
13385
13386
13387
13388
13389
13390
13391
13392
13393
13394
13395
13396
13397
13398
13398
13401
13401
13402
13403
13404
13405
13406
13407
13408
13409
13410
13411
13412
13412
13412
13617
13518
13518
13419
13419
13420
13421
13422
13423
13424
13425
13426
13427
13428
13429
13430
13431
13432
13433
13434
13435
13436
13437
13438
13439
13440
13441
13442
13443
13444
13445
13446
13447
13447
13447
13447
13751
13752
13753
13753
13753
13753
13753
13854
14057
14057
14161
14162
14163
14164
14165
14166
14167
14168
14169
14170
14171
14172
13977
13779
13480
13480
13480
13480
13480
13480
13481
13482
13483
13484
13485
13486
13487
13488
13489
13490
13491
13492
13493
13494
13495
13496
13497
13498
13498
13501
13501
13502
13503
13504
13505
13506
13507
13508
13509
13510
13511
13512
13512
13512
13617
13617
13518
13518
13519
13520
13521
13522
13523
13524
13525
13526
13527
13528
13529
13530
13531
13532
13533
13534
13535
13536
13537
13538
13539
13540
13541
13542
13543
13544
13545
13546
13547
13547
13547
13750
13751
13752
13753
13753
13753
13753
13854
13854
14057
14057
14161
14162
14163
14164
14165
14166
14167
14168
14169
14170
14171
14172
13977
13977
13779
13779
13779
13580
13580
13580
13581
13582
13583
13584
13585
13586
13587
13588
13589
13590
13591
13592
13593
13594
13595
13596
13597
13598
13598
13601
13601
13602
13603
13604
13605
13606
13607
13608
13609
13610
13611
13612
13612
13612
13617
13617
13617
13618
13619
13620
13621
13622
13623
13624
13625
13626
13627
13628
13629
13630
13631
13632
13633
13634
13635
13636
13637
13638
13639
13640
13641
13642
13643
13644
13645
13646
13647
13647
13749
13750
13751
13752
13753
13753
13753
13854
13854
14057
14057
14057
14161
14162
14163
14164
14165
14166
14167
14168
14169
14170
14171
14172
13977
13977
13977
13779
13779
13779
13680
13680
13681
13682
13683
13684
13685
13686
13687
13688
13689
13690
13691
13692
13693
13694
13695
13696
13697
13698
13698
13701
13701
13702
13703
13704
13705
13706
13707
13708
13709
13710
13711
13712
13712
13712
13717
13717
13717
13718
13719
13720
13721
13722
13723
13724
13725
13726
13727
13728
13729
13730
13731
13732
13733
13734
13735
13736
13737
13738
13739
13740
13741
13742
13743
13744
13745
13746
13747
13748
13749
13750
13751
13752
13753
13753
13854
13854
13955
14057
14057
14160
14161
14162
14163
14164
14165
14166
14167
14168
14169
14170
14171
14172
14173
13977
13977
13977
13779
13779
13779
13780
13781
13782
13783
13784
13785
13786
13787
13788
13789
13790
13791
13792
13793
13794
13795
13796
13797
13798
13798
13801
13801
13802
13803
13804
13805
13806
13807
13808
13809
13810
13811
13812
13812
13812
13916
13817
13817
13818
13819
13820
13821
13822
13823
13824
13825
13826
13827
13828
13829
13830
13831
13832
13833
13834
13835
13836
13837
13838
13839
13840
13841
13842
13843
13844
13845
13846
13847
13848
13849
13850
13851
13852
13853
13854
13854
13955
14057
14057
14057
14160
14161
14162
14163
14164
14165
14166
14167
14168
14169
14170
14171
14172
14173
14076
13977
13977
13977
13879
13879
13880
13881
13882
13883
13884
13885
13886
13887
13888
13889
13890
13891
13892
13893
13894
13895
13896
13897
13898
13898
13901
13901
13902
13903
13904
13905
13906
13907
13908
13909
13910
13911
13912
13912
13912
13916
13916
13917
13918
13919
13920
13921
13922
13923
13924
13925
13926
13927
13928
13929
13930
13931
13932
13933
13934
13935
13936
13937
13938
13939
13940
13941
13942
13943
13944
13945
13946
13947
13948
13949
13950
13951
13952
13953
13954
13955
13955
14057
14057
14159
14160
14161
14162
14163
14164
14165
14166
14167
14168
14169
14170
14171
14172
14173
14174
14076
13977
13977
13978
13979
13980
13981
13982
13983
13984
13985
13986
13987
13988
13989
13990
13991
13992
13993
13994
13995
13996
13997
13998
13998
14001
14001
14002
14003
14004
14005
14006
14007
14008
14009
14010
14011
14012
14012
14115
14016
14016
14017
14018
14019
14020
14021
14022
14023
14024
14025
14026
14027
14028
14029
14030
14031
14032
14033
14034
14035
14036
14037
14038
14039
14040
14041
14042
14043
14044
14045
14046
14047
14048
14049
14050
14051
14052
14053
14054
14055
14056
14057
14057
14159
14160
14161
14162
14163
14164
14165
14166
14167
14168
14169
14170
14171
14172
14173
14174
14076
14076
14077
14078
14079
14080
14081
14082
14083
14084
14085
14086
14087
14088
14089
14090
14091
14092
14093
14094
14095
14096
14097
14098
14098
14101
14101
14102
14103
14104
14105
14106
14107
14108
14109
14110
14111
14112
14112
14115
14115
14116
14117
14118
14119
14120
14121
14122
14123
14124
14125
14126
14127
14128
14129
14130
14131
14132
14133
14134
14135
14136
14137
14138
14139
14140
14141
14142
14143
14144
14145
14146
14147
14148
14149
14150
14151
14152
14153
14154
14155
14156
14157
14158
14159
14160
14161
14162
14163
14164
14165
14166
14167
14168
14169
14170
14171
14172
14173
14174
14175
14176
14177
14178
14179
14180
14181
14182
14183
14184
14185
14186
14187
14188
14189
14190
14191
14192
14193
14194
14095
14096
14097
14098
14098
14201
14201
14202
14203
14204
14205
14206
14207
14208
14209
14210
14211
14212
14212
14215
14215
14216
14217
14218
14219
14220
14221
14222
14223
14224
14225
14226
14227
14228
14229
14230
14231
14232
14233
14234
14235
14236
14237
14238
14239
14240
14241
14242
14243
14244
14245
14246
14247
14248
14249
14250
14251
14252
14253
14254
14255
14256
14257
14258
14259
14260
14261
14262
14263
14264
14265
14266
14267
14268
14269
14270
14271
14272
14273
14274
14275
14276
14277
14278
14279
14280
14281
14282
14283
14284
14285
14286
14287
14288
14289
14290
14291
14292
14193
14194
14194
14096
14097
14098
14098
14301
14301
14302
14303
14304
14305
14306
14307
14308
14309
14310
14311
14312
14312
14315
14315
14316
14317
14318
14319
14320
14321
14322
14323
14324
14325
14326
14327
14328
14329
14330
14331
14332
14333
14334
14335
14336
14337
14338
14339
14340
14341
14342
14343
14344
14345
14346
14347
14348
14349
14350
14351
14352
14353
14354
14355
14356
14357
14358
14359
14360
14361
14362
14363
14364
14365
14366
14367
14368
14369
14370
14371
14372
14373
14374
14375
14376
14377
14378
14379
14380
14381
14382
14383
14384
14385
14386
14387
14388
14389
14390
14391
14292
14292
14194
14194
14194
14097
14098
14098
14401
14401
14402
14403
14404
14405
14406
14407
14408
14409
14410
14411
14412
14412
14414
14415
14416
14417
14418
14419
14420
14421
14422
14423
14424
14425
14426
14427
14428
14429
14430
14431
14432
14433
14434
14435
14436
14437
14438
14439
14440
14441
14442
14443
14444
14445
14446
14447
14448
14449
14450
14451
14452
14453
14454
14455
14456
14457
14458
14459
14460
14461
14462
14463
14464
14465
14466
14467
14468
14469
14470
14471
14472
14473
14474
14475
14476
14477
14478
14479
14480
14481
14482
14483
14484
14485
14486
14487
14488
14489
14490
14391
14391
14292
14292
14194
14194
14097
14098
14098
14501
14501
14502
14503
14504
14505
14506
14507
14508
14509
14510
14511
14512
14512
14514
14515
14516
14517
14518
14519
14520
14521
14522
14523
14524
14525
14526
14527
14528
14529
14530
14531
14532
14533
14534
14535
14536
14537
14538
14539
14540
14541
14542
14543
14544
14545
14546
14547
14548
14549
14550
14551
14552
14553
14554
14555
14556
14557
14558
14559
14560
14561
14562
14563
14564
14565
14566
14567
14568
14569
14570
14571
14572
14573
14574
14575
14576
14577
14578
14579
14580
14581
14582
14583
14584
14585
14586
14587
14588
14589
14590
14590
14590
14391
14292
14194
14194
14097
14098
14098
14601
14601
14602
14603
14604
14605
14606
14607
14608
14609
14610
14611
14612
14612
14614
14615
14616
14617
14618
14619
14620
14621
14622
14623
14624
14625
14626
14627
14628
14629
14630
14631
14632
14633
14634
14635
14636
14637
14638
14639
14640
14641
14642
14643
14644
14645
14646
14647
14648
14649
14650
14651
14652
14653
14654
14655
14656
14657
14658
14659
14660
14661
14662
14663
14664
14665
14666
14667
14668
14669
14670
14671
14672
14673
14674
14675
14676
14677
14678
14679
14680
14681
14682
14683
14684
14685
14686
14687
14688
14689
14590
14590
14590
14590
14590
14292
14194
14194
14098
14098
14701
14701
14702
14703
14704
14705
14706
14707
14708
14709
14710
14711
14712
14712
14714
14715
14716
14717
14718
14719
14720
14721
14722
14723
14724
14725
14726
14727
14728
14729
14730
14731
14732
14733
14734
14735
14736
14737
14738
14739
14740
14741
14742
14743
14744
14745
14746
14747
14748
14749
14750
14751
14752
14753
14754
14755
14756
14757
14758
14759
14760
14761
14762
14763
14764
14765
14766
14767
14768
14769
14770
14771
14772
14773
14774
14775
14776
14777
14778
14779
14780
14781
14782
14783
14784
14785
14786
14787
14788
14789
14789
14789
14590
14590
14590
14590
14194
14194
14098
14098
14801
14801
14802
14803
14804
14805
14806
14807
14808
14809
14810
14811
14812
14812
14814
14815
14816
14817
14818
14819
14820
14821
14822
14823
14824
14825
14826
14827
14828
14829
14830
14831
14832
14833
14834
14835
14836
14837
14838
14839
14840
14841
14842
14843
14844
14845
14846
14847
14848
14849
14850
14851
14852
14853
14854
14855
14856
14857
14858
14859
14860
14861
14862
14863
14864
14865
14866
14867
14868
14869
14870
14871
14872
14873
14874
14875
14876
14877
14878
14879
14880
14881
14882
14883
14884
14885
14886
14887
14888
14889
14889
14889
14889
14889
14590
14590
14590
14194
14098
14098
14801
14801
14802
14803
14804
14805
14806
14807
14808
14809
14810
14811
14812
14812
14814
14815
14816
14817
14818
14819
14820
14821
14822
14823
14824
14825
14826
14827
14828
14829
14830
14831
14832
14833
14834
14835
14836
14837
14838
14839
14840
14841
14842
14843
14844
14845
14846
14847
14848
14849
14850
14851
14852
14853
14854
14855
14856
14857
14858
14859
14860
14861
14862
14863
14864
14865
14866
14867
14868
14869
14870
14871
14872
14873
14874
14875
14876
14877
14878
14879
14880
14881
14882
14883
14884
14885
14886
14887
14888
14889
14889
14889
14889
14889
14889
14889
14889
14590
14194
14098
14801
14801
14802
14803
14804
14805
14806
14807
14808
14809
14810
14811
14812
14812
14814
14815
14816
14817
14818
14819
14820
14821
14822
14823
14824
14825
14826
14827
14828
14829
14830
14831
14832
14833
14834
14835
14836
14837
14838
14839
14840
14841
14842
14843
14844
14845
14846
14847
14848
14849
14850
14851
14852
14853
14854
14855
14856
14857
14858
14859
14860
14861
14862
14863
14864
14865
14866
14867
14868
14869
14870
14871
14872
14873
14874
14875
14876
14877
14878
14879
14880
14881
14882
14883
14884
14885
14886
14887
14888
14889
14889
14889
14889
14889
14889
14889
14889
14889
14889
14098