 76
 76
 76
 76
 76
 76
 76
 77
 78
 79
 80
 81
 82
 83
 84
 85
 86
 87
 88
 89
 90
 90
 90
 90
 90
 90
 90
 90
 90
 90
 90
 90
 90
 90
 90
 90
 90
 90
 90
441
441
441
441
441
441
441
441
441
441
441
441
441
441
441
441
441
441
2574
2574
2574
2585
2585
2585
2585
2585
2585
2586
2587
2588
2588
421
 76
 76
 76
 76
 76
 76
 77
 78
 79
 80
 81
 82
 83
 84
 85
 86
 87
 88
 89
 90
 90
 90
 90
 90
 90
 90
 90
 90
 90
 90
 90
 90
 90
441
441
441
441
441
441
441
441
441
441
441
441
441
441
441
441
441
441
441
441
441
441
2574
2574
2574
2574
2585
2585
2585
2585
2585
2585
2586
2587
2588
2588
421
421
146
146
146
146
146
147
148
149
150
151
152
153
154
155
156
157
158
159
160
160
160
160
160
160
160
160
160
441
441
441
441
441
441
441
441
441
441
441
441
441
441
441
441
441
441
441
441
441
441
441
441
441
441
2574
2574
2574
2574
2574
2585
2585
2585
2585
2585
2585
2586
2587
2588
2588
421
421
422
216
216
216
216
217
218
219
220
221
222
223
224
225
226
227
228
229
230
230
230
230
230
230
441
441
441
441
441
441
441
441
441
441
441
441
441
441
441
441
441
441
441
441
441
441
441
441
441
441
441
441
2574
2574
2574
2574
2574
2574
2585
2585
2585
2585
2585
2585
2586
2587
2588
2588
421
421
422
423
286
286
286
287
288
289
290
291
292
293
294
295
296
297
298
299
300
300
300
441
441
441
441
441
441
441
441
441
441
441
441
441
441
441
441
441
441
441
441
441
441
441
441
441
441
441
441
441
441
2573
2574
2574
2574
2574
2574
2574
2585
2585
2585
2585
2585
2585
2586
2587
2588
2588
421
421
422
423
424
356
356
357
358
359
360
361
362
363
364
365
366
367
368
369
370
370
441
441
441
441
441
441
441
441
441
441
441
441
441
441
441
441
441
441
441
441
441
441
441
441
441
441
441
441
441
441
2572
2573
2574
2574
2574
2574
2574
2574
2585
2585
2585
2585
2585
2585
2586
2587
2588
2588
421
421
422
423
424
425
426
427
428
429
430
431
432
433
434
435
436
437
438
439
440
441
441
441
441
441
441
441
441
441
441
441
441
441
441
441
441
441
441
441
441
441
441
441
441
441
441
441
441
441
441
441
2572
2573
2574
2574
2574
2574
2574
2574
2585
2585
2585
2585
2585
2585
2586
2587
2588
2588
491
491
492
493
494
495
496
497
498
499
500
501
502
503
504
505
506
507
508
509
510
511
511
511
511
511
511
511
511
511
511
511
511
511
511
511
511
511
511
511
511
511
511
511
511
511
511
511
511
511
511
2571
2572
2573
2574
2574
2574
2574
2574
2574
2585
2585
2585
2585
2585
2585
2586
2587
2588
2588
561
561
562
563
564
565
566
567
568
569
570
571
572
573
574
575
576
577
578
579
580
581
581
581
581
581
581
581
581
581
581
581
581
581
581
581
581
581
581
581
581
581
581
581
581
581
581
581
581
581
2570
2571
2572
2573
2574
2574
2574
2574
2574
2574
2585
2585
2585
2585
2585
2585
2586
2587
2588
2588
631
631
632
633
634
635
636
637
638
639
640
641
642
643
644
645
646
647
648
649
650
651
651
651
651
651
651
651
651
651
651
651
651
651
651
651
651
651
651
651
651
651
651
651
651
651
651
651
651
2569
2570
2571
2572
2573
2574
2574
2574
2574
2574
2574
2585
2585
2585
2585
2585
2585
2586
2587
2588
2588
701
701
702
703
704
705
706
707
708
709
710
711
712
713
714
715
716
717
718
719
720
721
721
721
721
721
721
721
721
721
721
721
721
721
721
721
721
721
721
721
721
721
721
721
721
721
721
721
2568
2569
2570
2571
2572
2573
2574
2574
2574
2574
2574
2574
2585
2585
2585
2585
2585
2585
2586
2587
2588
2588
771
771
772
773
774
775
776
777
778
779
780
781
782
783
784
785
786
787
788
789
790
791
791
791
791
791
791
791
791
791
791
791
791
791
791
791
791
791
791
791
791
791
791
791
791
791
791
2567
2568
2569
2570
2571
2572
2573
2574
2574
2574
2574
2574
2574
2585
2585
2585
2585
2585
2585
2586
2587
2588
2588
841
841
842
843
844
845
846
847
848
849
850
851
852
853
854
855
856
857
858
859
860
861
861
861
861
861
861
861
861
861
861
861
861
861
861
861
861
861
861
861
861
861
861
861
861
861
2566
2567
2568
2569
2570
2571
2572
2573
2574
2574
2574
2574
2574
2574
2585
2585
2585
2585
2585
2585
2586
2587
2588
2588
911
911
912
913
914
915
916
917
918
919
920
921
922
923
924
925
926
927
928
929
930
931
931
931
931
931
931
931
931
931
931
931
931
931
931
931
931
931
931
931
931
931
931
931
931
2565
2566
2567
2568
2569
2570
2571
2572
2573
2574
2574
2574
2574
2574
2574
2585
2585
2585
2585
2585
2585
2586
2587
2588
2588
981
981
982
983
984
985
986
987
988
989
990
991
992
993
994
995
996
997
998
999
1000
1001
1001
1001
1001
1001
1001
1001
1001
1001
1001
1001
1001
1001
1001
1001
1001
1001
1001
1001
1001
1001
1001
1001
2564
2565
2566
2567
2568
2569
2570
2571
2572
2573
2574
2574
2574
2574
2574
2574
2585
2585
2585
2585
2585
2585
2586
2587
2588
2588
1051
1051
1052
1053
1054
1055
1056
1057
1058
1059
1060
1061
1062
1063
1064
1065
1066
1067
1068
1069
1070
1071
1071
1071
1071
1071
1071
1071
1071
1071
1071
1071
1071
1071
1071
1071
1071
1071
1071
1071
1071
1071
1071
2564
2564
2565
2566
2567
2568
2569
2570
2571
2572
2573
2574
2574
2574
2574
2574
2574
2585
2585
2585
2585
2585
2585
2586
2587
2588
2588
1121
1121
1122
1123
1124
1125
1126
1127
1128
1129
1130
1131
1132
1133
1134
1135
1136
1137
1138
1139
1140
1141
1141
1141
1141
1141
1141
1141
1141
1141
1141
1141
1141
1141
1141
1141
1141
1141
1141
1141
1141
1141
2564
2564
2564
2565
2566
2567
2568
2569
2570
2571
2572
2573
2574
2574
2574
2574
2574
2574
2585
2585
2585
2585
2585
2585
2586
2587
2588
2588
1191
1191
1192
1193
1194
1195
1196
1197
1198
1199
1200
1201
1202
1203
1204
1205
1206
1207
1208
1209
1210
1211
1211
1211
1211
1211
1211
1211
1211
1211
1211
1211
1211
1211
1211
1211
1211
1211
1211
1211
1211
2564
2564
2564
2564
2565
2566
2567
2568
2569
2570
2571
2572
2573
2574
2574
2574
2574
2574
2574
2585
2585
2585
2585
2585
2585
2586
2587
2588
2588
1261
1261
1262
1263
1264
1265
1266
1267
1268
1269
1270
1271
1272
1273
1274
1275
1276
1277
1278
1279
1280
1281
1281
1281
1281
1281
1281
1281
1281
1281
1281
1281
1281
1281
1281
1281
1281
1281
1281
1281
2564
2564
2564
2564
2564
2565
2566
2567
2568
2569
2570
2571
2572
2573
2574
2574
2574
2574
2574
2574
2585
2585
2585
2585
2585
2585
2586
2587
2588
2588
1331
1331
1332
1333
1334
1335
1336
1337
1338
1339
1340
1341
1342
1343
1344
1345
1346
1347
1348
1349
1350
1351
1351
1351
1351
1351
1351
1351
1351
1351
1351
1351
1351
1351
1351
1351
1351
1351
1351
2564
2564
2564
2564
2564
2564
2565
2566
2567
2568
2569
2570
2571
2572
2573
2574
2574
2574
2574
2574
2574
2585
2585
2585
2585
2585
2585
2586
2587
2588
2588
1401
1401
1402
1403
1404
1405
1406
1407
1408
1409
1410
1411
1412
1413
1414
1415
1416
1417
1418
1419
1420
1421
1421
1421
1421
1421
1421
1421
1421
1421
1421
1421
1421
1421
1421
1421
1421
1421
1421
2564
2564
2564
2564
2564
2564
2565
2566
2567
2568
2569
2570
2571
2572
2573
2574
2574
2574
2574
2574
2574
2585
2585
2585
2585
2585
2585
2586
2587
2588
2588
1471
1471
1472
1473
1474
1475
1476
1477
1478
1479
1480
1481
1482
1483
1484
1485
1486
1487
1488
1489
1490
1491
1491
1491
1491
1491
1491
1491
1491
1491
1491
1491
1491
1491
1491
1491
1491
1491
2564
2564
2564
2564
2564
2564
2564
2565
2566
2567
2568
2569
2570
2571
2572
2573
2574
2574
2574
2574
2574
2574
2585
2585
2585
2585
2585
2585
2586
2587
2588
2588
1541
1541
1542
1543
1544
1545
1546
1547
1548
1549
1550
1551
1552
1553
1554
1555
1556
1557
1558
1559
1560
1561
1561
1561
1561
1561
1561
1561
1561
1561
1561
1561
1561
1561
1561
1561
1561
2564
2564
2564
2564
2564
2564
2564
2564
2565
2566
2567
2568
2569
2570
2571
2572
2573
2574
2574
2574
2574
2574
2574
2585
2585
2585
2585
2585
2585
2586
2587
2588
2588
1611
1611
1612
1613
1614
1615
1616
1617
1618
1619
1620
1621
1622
1623
1624
1625
1626
1627
1628
1629
1630
1631
1631
1631
1631
1631
1631
1631
1631
1631
1631
1631
1631
1631
1631
1631
2549
2564
2564
2564
2564
2564
2564
2564
2564
2565
2566
2567
2568
2569
2570
2571
2572
2573
2574
2574
2574
2574
2574
2574
2585
2585
2585
2585
2585
2585
2586
2587
2588
2588
1681
1681
1682
1683
1684
1685
1686
1687
1688
1689
1690
1691
1692
1693
1694
1695
1696
1697
1698
1699
1700
1701
1701
1701
1701
1701
1701
1701
1701
1701
1701
1701
1701
1701
1701
2549
2549
2564
2564
2564
2564
2564
2564
2564
2564
2565
2566
2567
2568
2569
2570
2571
2572
2573
2574
2574
2574
2574
2574
2574
2585
2585
2585
2585
2585
2585
2586
2587
2588
2588
1751
1751
1752
1753
1754
1755
1756
1757
1758
1759
1760
1761
1762
1763
1764
1765
1766
1767
1768
1769
1770
1771
1771
1771
1771
1771
1771
1771
1771
1771
1771
1771
1771
2549
2549
2549
2549
2564
2564
2564
2564
2564
2564
2564
2564
2565
2566
2567
2568
2569
2570
2571
2572
2573
2574
2574
2574
2574
2574
2574
2585
2585
2585
2585
2585
2585
2586
2587
2588
2588
1821
1821
1822
1823
1824
1825
1826
1827
1828
1829
1830
1831
1832
1833
1834
1835
1836
1837
1838
1839
1840
1841
1841
1841
1841
1841
1841
1841
1841
1841
1841
1841
2549
2549
2549
2549
2549
2564
2564
2564
2564
2564
2564
2564
2564
2565
2566
2567
2568
2569
2570
2571
2572
2573
2574
2574
2574
2574
2574
2574
2585
2585
2585
2585
2585
2585
2586
2587
2588
2588
1891
1891
1892
1893
1894
1895
1896
1897
1898
1899
1900
1901
1902
1903
1904
1905
1906
1907
1908
1909
1910
1911
1911
1911
1911
1911
1911
1911
1911
1911
1911
2549
2549
2549
2549
2549
2549
2564
2564
2564
2564
2564
2564
2564
2564
2565
2566
2567
2568
2569
2570
2571
2572
2573
2574
2574
2574
2574
2574
2574
2585
2585
2585
2585
2585
2585
2586
2587
2588
2588
1961
1961
1962
1963
1964
1965
1966
1967
1968
1969
1970
1971
1972
1973
1974
1975
1976
1977
1978
1979
1980
1981
1981
1981
1981
1981
1981
1981
1981
1981
2549
2549
2549
2549
2549
2549
2549
2564
2564
2564
2564
2564
2564
2564
2564
2565
2566
2567
2568
2569
2570
2571
2572
2573
2574
2574
2574
2574
2574
2574
2585
2585
2585
2585
2585
2585
2586
2587
2588
2588
2031
2031
2032
2033
2034
2035
2036
2037
2038
2039
2040
2041
2042
2043
2044
2045
2046
2047
2048
2049
2050
2051
2051
2051
2051
2051
2051
2051
2051
2549
2549
2549
2549
2549
2549
2549
2549
2564
2564
2564
2564
2564
2564
2564
2564
2565
2566
2567
2568
2569
2570
2571
2572
2573
2574
2574
2574
2574
2574
2574
2585
2585
2585
2585
2585
2585
2586
2587
2588
2588
2101
2101
2102
2103
2104
2105
2106
2107
2108
2109
2110
2111
2112
2113
2114
2115
2116
2117
2118
2119
2120
2121
2121
2121
2121
2121
2121
2121
2548
2549
2549
2549
2549
2549
2549
2549
2549
2564
2564
2564
2564
2564
2564
2564
2564
2565
2566
2567
2568
2569
2570
2571
2572
2573
2574
2574
2574
2574
2574
2574
2585
2585
2585
2585
2585
2585
2586
2587
2588
2588
2171
2171
2172
2173
2174
2175
2176
2177
2178
2179
2110
2181
2182
2183
2184
2185
2186
2187
2188
2189
2190
2191
2191
2191
2191
2191
2191
2547
2548
2549
2549
2549
2549
2549
2549
2549
2549
2564
2564
2564
2564
2564
2564
2564
2564
2565
2566
2567
2568
2569
2570
2571
2572
2573
2574
2574
2574
2574
2574
2574
2585
2585
2585
2585
2585
2585
2586
2587
2588
2588
2241
2241
2242
2243
2244
2245
2246
2247
2248
2249
2250
2251
2252
2253
2254
2255
2256
2257
2258
2259
2260
2261
2261
2261
2261
2261
2546
2547
2548
2549
2549
2549
2549
2549
2549
2549
2549
2564
2564
2564
2564
2564
2564
2564
2564
2565
2566
2567
2568
2569
2570
2571
2572
2573
2574
2574
2574
2574
2574
2574
2585
2585
2585
2585
2585
2585
2586
2587
2588
2588
2311
2311
2312
2313
2314
2315
2316
2317
2318
2319
2320
2321
2322
2323
2324
2325
2326
2327
2328
2329
2330
2331
2331
2331
2331
2545
2546
2547
2548
2549
2549
2549
2549
2549
2549
2549
2549
2564
2564
2564
2564
2564
2564
2564
2564
2565
2566
2567
2568
2569
2570
2571
2572
2573
2574
2574
2574
2574
2574
2574
2585
2585
2585
2585
2585
2585
2586
2587
2588
2588
2381
2381
2382
2383
2384
2385
2386
2387
2388
2389
2390
2391
2392
2393
2394
2395
2396
2397
2398
2399
2400
2401
2401
2401
2544
2545
2546
2547
2548
2549
2549
2549
2549
2549
2549
2549
2549
2564
2564
2564
2564
2564
2564
2564
2564
2565
2566
2567
2568
2569
2570
2571
2572
2573
2574
2574
2574
2574
2574
2574
2585
2585
2585
2585
2585
2585
2586
2587
2588
2588
2451
2451
2452
2453
2454
2455
2456
2457
2458
2459
2460
2461
2462
2463
2464
2465
2466
2467
2468
2469
2470
2471
2471
2543
2544
2545
2546
2547
2548
2549
2549
2549
2549
2549
2549
2549
2549
2564
2564
2564
2564
2564
2564
2564
2564
2565
2566
2567
2568
2569
2570
2571
2572
2573
2574
2574
2574
2574
2574
2574
2585
2585
2585
2585
2585
2585
2586
2587
2588
2588
2521
2521
2522
2523
2524
2525
2526
2527
2528
2529
2530
2531
2532
2533
2534
2535
2536
2537
2538
2539
2540
2541
2542
2543
2544
2545
2546
2547
2548
2549
2549
2549
2549
2549
2549
2549
2549
2564
2564
2564
2564
2564
2564
2564
2564
2565
2566
2567
2568
2569
2570
2571
2572
2573
2574
2574
2574
2574
2574
2574
2585
2585
2585
2585
2585
2585
2586
2587
2588
2588
2591
2591
2592
2593
2594
2595
2596
2597
2598
2599
2600
2601
2602
2603
2604
2605
2606
2607
2608
2609
2610
2611
2612
2613
2614
2615
2616
2617
2618
2619
2619
2619
2619
2619
2619
2619
3046
3047
2634
2634
2634
2634
2634
2634
2634
2635
2636
2637
2638
2639
2640
2641
2642
2643
2644
2644
2644
2644
2644
2644
2655
2655
2655
2655
2655
2655
2656
2657
2658
2658
2661
2661
2662
2663
2664
2665
2666
2667
2668
2669
2670
2671
2672
2673
2674
2675
2676
2677
2678
2679
2680
2681
2682
2683
2684
2685
2686
2687
2688
2689
2689
2689
2689
2689
2689
3045
3046
3047
3048
2704
2704
2704
2704
2704
2704
2705
2706
2707
2708
2709
2710
2711
2712
2713
2714
2714
2714
2714
2714
2714
2725
2725
2725
2725
2725
2725
2726
2727
2728
2728
2731
2731
2732
2733
2734
2735
2736
2737
2738
2739
2740
2741
2742
2743
2744
2745
2746
2747
2748
2749
2750
2751
2752
2753
2754
2755
2756
2757
2758
2759
2759
2759
2759
2759
3044
3045
3046
3047
3048
3049
2774
2774
2774
2774
2774
2775
2776
2777
2778
2779
2780
2781
2782
2783
2784
2784
2784
2784
2784
2784
2795
2795
2795
2795
2795
2795
2796
2797
2798
2798
2801
2801
2802
2803
2804
2805
2806
2807
2808
2809
2810
2811
2812
2813
2814
2815
2816
2817
2818
2819
2820
2821
2822
2823
2824
2825
2826
2827
2828
2829
2829
2829
2829
3043
3044
3045
3046
3047
3048
3049
3050
2844
2844
2844
2844
2845
2846
2847
2848
2849
2850
2851
2852
2853
2854
2854
2854
2854
2854
2854
2865
2865
2865
2865
2865
2865
2866
2867
2868
2868
2871
2871
2872
2873
2874
2875
2876
2877
2878
2879
2880
2881
2882
2883
2884
2885
2886
2887
2888
2889
2890
2891
2892
2893
2894
2895
2896
2897
2898
2899
2899
2899
3042
3043
3044
3045
3046
3047
3048
3049
3050
3051
2914
2914
2914
2915
2916
2917
2918
2919
2920
2921
2922
2923
2924
2924
2924
2924
2924
2924
2935
2935
2935
2935
2935
2935
2936
2937
2938
2938
2941
2941
2942
2943
2944
2945
2946
2947
2948
2949
2950
2951
2952
2953
2954
2955
2956
2957
2958
2959
2960
2961
2962
2963
2964
2965
2966
2967
2968
2969
2969
3041
3042
3043
3044
3045
3046
3047
3048
3049
3050
3051
3052
2984
2984
2985
2986
2987
2988
2989
2990
2991
2992
2993
2994
2994
2994
2994
2994
3279
3280
3005
3005
3005
3005
3005
3006
3007
3008
3008
3011
3011
3012
3013
3014
3015
3016
3017
3018
3019
3020
3021
3022
3023
3024
3025
3026
3027
3028
3029
3030
3031
3032
3033
3034
3035
3036
3037
3038
3039
3040
3041
3042
3043
3044
3045
3046
3047
3048
3049
3050
3051
3052
3053
3054
3055
3056
3057
3058
3059
3060
3061
3062
3063
3064
3064
3064
3064
3278
3279
3280
3281
3075
3075
3075
3075
3076
3077
3078
3078
3081
3081
3082
3083
3084
3085
3086
3087
3088
3089
3090
3091
3092
3093
3094
3095
3096
3097
3098
3099
3100
3101
3102
3103
3104
3105
3106
3107
3108
3109
3110
3111
3112
3113
3114
3115
3116
3117
3118
3119
3120
3121
3122
3123
3124
3125
3126
3127
3128
3129
3130
3131
3132
3133
3134
3134
3134
3277
3278
3279
3280
3281
3282
3145
3145
3145
3146
3147
3148
3148
3151
3151
3152
3153
3154
3155
3156
3157
3158
3159
3160
3161
3162
3163
3164
3165
3166
3167
3168
3169
3170
3171
3172
3173
3174
3175
3176
3177
3178
3179
3180
3181
3182
3183
3184
3185
3186
3187
3188
3189
3190
3191
3192
3193
3194
3195
3196
3197
3198
3199
3200
3201
3202
3203
3204
3204
3276
3277
3278
3279
3280
3281
3282
3283
3215
3215
3216
3217
3218
3218
3221
3221
3222
3223
3224
3225
3226
3227
3228
3229
3230
3231
3232
3233
3234
3235
3236
3237
3238
3239
3240
3241
3242
3243
3244
3245
3246
3247
3248
3249
3250
3251
3252
3253
3254
3255
3256
3257
3258
3259
3260
3261
3262
3263
3264
3265
3266
3267
3268
3269
3270
3271
3272
3273
3274
3275
3276
3277
3278
3279
3280
3281
3282
3283
3284
3285
3286
3287
3288
3288
3291
3291
3292
3293
3294
3295
3296
3297
3298
3299
3300
3301
3302
3303
3304
3305
3306
3307
3308
3309
3310
3311
3312
3313
3314
3315
3316
3317
3318
3319
3320
3321
3322
3323
3324
3325
3326
3327
3328
3329
3330
3331
3332
3333
3334
3335
3336
3337
3338
3339
3340
3341
3342
3343
3344
3345
3346
3347
3348
3349
3350
3351
3352
3353
3354
3355
3356
3357
3358
3358
3361
3361
3362
3363
3364
3365
3366
3367
3368
3369
3370
3371
3372
3373
3374
3375
3376
3377
3378
3379
3380
3381
3382
3383
3384
3385
3386
3387
3388
3389
3390
3391
3392
3393
3394
3395
3396
3397
3398
3399
3400
3401
3402
3403
3404
3405
3406
3407
3408
3409
3410
3411
3412
3413
3414
3415
3416
3417
3418
3419
3420
3421
3422
3423
3424
3425
3426
3427
3428
3428
3431
3431
3432
3433
3434
3435
3436
3437
3438
3439
3440
3441
3442
3443
3444
3445
3446
3447
3448
3449
3450
3451
3452
3453
3454
3455
3456
3457
3458
3459
3460
3461
3462
3463
3464
3465
3466
3467
3468
3469
3470
3471
3472
3473
3474
3475
3476
3477
3478
3479
3480
3481
3482
3483
3484
3485
3486
3487
3488
3489
3490
3491
3492
3493
3494
3495
3496
3497
3498
3498
3501
3501
3502
3503
3504
3505
3506
3507
3508
3509
3510
3511
3512
3513
3514
3515
3516
3517
3518
3519
3520
3521
3522
3523
3524
3525
3526
3527
3528
3529
3530
3531
3532
3533
3534
3535
3536
3537
3538
3539
3540
3541
3542
3543
3544
3545
3546
3547
3548
3549
3550
3551
3552
3553
3554
3555
3556
3557
3558
3559
3560
3561
3562
3563
3564
3565
3566
3567
3568
3568
3571
3571
3572
3573
3574
3575
3576
3577
3578
3579
3580
3581
3582
3583
3584
3585
3586
3587
3588
3589
3590
3591
3592
3593
3594
3595
3596
3597
3598
3599
3600
3601
3602
3603
3604
3605
3606
3607
3608
3609
3610
3611
3612
3613
3614
3615
3616
3617
3618
3619
3620
3621
3622
3623
3624
3555
3556
3557
3558
3559
3560
3561
3562
3563
3564
3635
3636
3637
3638
3638
3641
3641
3642
3643
3644
3645
3646
3647
3648
3649
3580
3581
3582
3583
3584
3585
3586
3587
3588
3589
3590
3591
3592
3593
3594
3595
3666
3667
3668
3669
3670
3671
3672
3673
3674
3675
3676
3677
3678
3679
3680
3681
3682
3683
3684
3685
3686
3687
3688
3689
3690
3691
3692
3693
3694
3694
3556
3557
3558
3559
3560
3561
3562
3563
3705
3705
3706
3707
3708
3708
3711
3711
3712
3713
3714
3715
3716
3717
3718
3719
3719
3581
3582
3583
3584
3585
3586
3587
3588
3589
3590
3591
3592
3593
3594
3736
3736
3737
3738
3739
3740
3741
3742
3743
3744
3745
3746
3747
3748
3749
3750
3751
3752
3753
3754
3755
3756
3757
3758
3759
3760
3761
3762
3763
3764
3764
3764
3557
3558
3559
3560
3561
3562
3775
3775
3775
3776
3777
3778
3778
3781
3781
3782
3783
3784
3785
3786
3787
3788
3789
3789
3789
3582
3583
3584
3585
3586
3587
3588
3589
3590
3591
3592
3593
3806
3806
3806
3807
3808
3809
3810
3811
3812
3813
3814
3815
3816
3817
3818
3819
3820
3821
3822
3823
3824
3825
3826
3827
3828
3829
3830
3831
3832
3833
3834
3834
3834
3834
3558
3559
3560
3561
3845
3845
3845
3845
3846
3847
3848
3848
3851
3851
3852
3853
3854
3855
3856
3857
3858
3859
3859
3859
3859
3583
3584
3585
3586
3587
3588
3589
3590
3591
3592
3876
3876
3876
3876
3877
3878
3879
3880
3881
3882
3883
3884
3885
3886
3887
3888
3889
3890
3891
3892
3893
3894
3895
3896
3897
3898
3899
3900
3901
3902
3903
3904
3904
3904
3904
3904
3559
3560
3915
3915
3915
3915
3915
3916
3917
3918
3918
3921
3921
3922
3923
3924
3925
3926
3927
3928
3929
3929
3929
3929
3929
4214
4215
4216
4217
4218
4219
4220
4221
3946
3946
3946
3946
3946
3947
3948
3949
3950
3951
3952
3953
3954
3955
3956
3957
3958
3959
3960
3961
3962
3963
3964
3965
3966
3967
3968
3969
3970
3971
3972
3973
3974
3974
3974
3974
3974
3974
3985
3985
3985
3985
3985
3985
3986
3987
3988
3988
3991
3991
3992
3993
3994
3995
3996
3997
3998
3999
3999
3999
3999
4213
4214
4215
4216
4217
4218
4219
4220
4221
4222
4016
4016
4016
4016
4017
4018
4019
4020
4021
4022
4023
4024
4025
4026
4027
4028
4029
4030
4031
4032
4033
4034
4035
4036
4037
4038
4039
4040
4041
4042
4043
4044
4044
4044
4044
4044
4044
4055
4055
4055
4055
4055
4055
4056
4057
4058
4058
4061
4061
4062
4063
4064
4065
4066
4067
4068
4069
4069
4069
4212
4213
4214
4215
4216
4217
4218
4219
4220
4221
4222
4223
4086
4086
4086
4087
4088
4089
4090
4091
4092
4093
4094
4095
4096
4097
4098
4099
4100
4101
4102
4103
4104
4105
4106
4107
4108
4109
4110
4111
4112
4113
4114
4114
4114
4114
4114
4114
4125
4125
4125
4125
4125
4125
4126
4127
4128
4128
4131
4131
4132
4133
4134
4135
4136
4137
4138
4139
4139
4211
4212
4213
4214
4215
4216
4217
4218
4219
4220
4221
4222
4223
4224
4156
4156
4157
4158
4159
4160
4161
4162
4163
4164
4165
4166
4167
4168
4169
4170
4171
4172
4173
4174
4175
4176
4177
4178
4179
4180
4181
4182
4183
4184
4184
4184
4184
4184
4469
4470
4195
4195
4195
4195
4195
4196
4197
4198
4198
4201
4201
4202
4203
4204
4205
4206
4207
4208
4209
4210
4211
4212
4213
4214
4215
4216
4217
4218
4219
4220
4221
4222
4223
4224
4225
4226
4227
4228
4229
4230
4231
4232
4233
4234
4235
4236
4237
4238
4239
4240
4241
4242
4243
4244
4245
4246
4247
4248
4249
4250
4251
4252
4253
4254
4254
4254
4254
4469
4469
4470
4471
4265
4265
4265
4265
4266
4267
4268
4268
4271
4271
4272
4273
4274
4275
4276
4277
4278
4279
4280
4281
4282
4283
4284
4285
4286
4287
4288
4289
4290
4291
4292
4293
4294
4295
4296
4297
4298
4299
4300
4301
4302
4303
4304
4305
4306
4307
4308
4309
4310
4311
4312
4313
4314
4315
4316
4317
4318
4319
4320
4321
4322
4323
4324
4324
4324
4469
4469
4469
4470
4471
4472
4335
4335
4335
4336
4337
4338
4338
4341
4341
4342
4343
4344
4345
4346
4347
4348
4349
4280
4281
4282
4283
4284
4285
4286
4287
4288
4289
4290
4291
4292
4293
4294
4295
4296
4297
4298
4299
4300
4301
4302
4303
4304
4305
4306
4307
4308
4309
4310
4311
4312
4313
4314
4315
4316
4317
4318
4319
4320
4321
4322
4323
4324
4324
4324
4469
4469
4469
4470
4471
4472
4472
4335
4335
4336
4337
4338
4338
4411
4411
4412
4413
4414
4415
4416
4417
4418
4419
4420
4421
4422
4423
4424
4425
4426
4427
4428
4429
4430
4431
4432
4433
4434
4435
4436
4437
4438
4439
4440
4441
4441
4303
4304
4305
4306
4307
4308
4309
4310
4311
4312
4313
4314
4315
4316
4317
4318
4319
4320
4321
4322
4323
4324
4324
4324
4469
4469
4469
4470
4471
4472
4472
4472
4335
4336
4337
4338
4338
4481
4481
4482
4483
4484
4485
4486
4487
4488
4489
4490
4491
4492
4493
4494
4495
4496
4497
4498
4499
4500
4501
4502
4503
4504
4505
4506
4507
4508
4509
4510
4511
4511
4511
4304
4305
4306
4307
4308
4309
4310
4311
4312
4313
4314
4315
4316
4317
4318
4319
4320
4321
4322
4323
4324
4324
4539
4539
4539
4539
4540
4541
4542
4542
4542
4335
4336
4337
4338
4338
4551
4551
4552
4553
4554
4555
4556
4557
4558
4559
4560
4561
4562
4563
4564
4565
4566
4567
4568
4569
4570
4571
4572
4573
4574
4575
4576
4577
4578
4579
4580
4581
4581
4581
4581
4305
4306
4307
4308
4309
4310
4311
4312
4313
4314
4315
4316
4317
4318
4319
4320
4321
4322
4323
4324
4609
4609
4609
4609
4609
4610
4611
4612
4612
4612
4612
4336
4337
4338
4338
4621
4621
4622
4623
4624
4625
4626
4627
4628
4629
4630
4631
4632
4633
4634
4635
4636
4637
4638
4639
4640
4641
4642
4643
4644
4645
4646
4647
4648
4649
4650
4651
4651
4651
4651
4651
4306
4307
4308
4309
4310
4311
4312
4313
4314
4315
4316
4317
4318
4319
4320
4321
4322
4323
4324
4679
4679
4679
4679
4679
4680
4681
4682
4682
4682
4682
4682
4337
4338
4338
4691
4691
4692
4693
4694
4695
4696
4697
4698
4699
4700
4701
4702
4703
4704
4705
4706
4707
4708
4709
4710
4711
4712
4713
4714
4715
4716
4717
4718
4719
4720
4721
4721
4721
4721
4721
5006
5007
5008
5009
5010
5011
5012
5013
5014
5015
5016
5017
5018
5019
5020
5021
5022
5023
5024
4749
4749
4749
4749
4749
4750
4751
4752
4752
4752
4752
4752
4752
4338
4338
4761
4761
4762
4763
4764
4765
4766
4767
4768
4769
4770
4771
4772
4773
4774
4775
4776
4777
4778
4779
4780
4781
4782
4783
4784
4785
4786
4787
4788
4789
4790
4791
4791
4791
4791
5005
5006
5007
5008
5009
5010
5011
5012
5013
5014
5015
5016
5017
5018
5019
5020
5021
5022
5023
5024
5025
4819
4819
4819
4819
4820
4821
4822
4822
4822
4822
4822
4822
4822
4822
4831
4831
4832
4833
4834
4835
4836
4837
4838
4839
4840
4841
4842
4843
4844
4845
4846
4847
4848
4849
4850
4851
4852
4853
4854
4855
4856
4857
4858
4859
4860
4861
4861
4861
5004
5005
5006
5007
5008
5009
5010
5011
5012
5013
5014
5015
5016
5017
5018
5019
5020
5021
5022
5023
5024
5025
5026
4889
4889
4889
4890
4891
4892
4892
4892
4892
4892
4892
4892
4892
4901
4901
4902
4903
4904
4905
4906
4907
4908
4909
4910
4911
4912
4913
4914
4915
4916
4917
4918
4919
4920
4921
4922
4923
4924
4925
4926
4927
4928
4929
4930
4931
4931
5003
5004
5005
5006
5007
5008
5009
5010
5011
5012
5013
5014
5015
5016
5017
5018
5019
5020
5021
5022
5023
5024
5025
5026
5027
4959
4959
4960
4961
4962
4962
4962
4962
4962
4962
4962
4962
4971
4971
4972
4973
4974
4975
4976
4977
4978
4979
4980
4981
4982
4983
4984
4985
4986
4987
4988
4989
4990
4991
4992
4993
4994
4995
4996
4997
4998
4999
5000
5001
5002
5003
5004
5005
5006
5007
5008
5009
5010
5011
5012
5013
5014
5015
5016
5017
5018
5019
5020
5021
5022
5023
5024
5025
5026
5027
5028
5029
5030
5031
5032
5032
5032
5032
5032
5032
5032
5032
5041
5041
5042
5043
5044
5045
5046
5047
5048
5049
5050
5051
5052
5053
5054
5055
5056
5057
5058
5059
5060
5061
5062
5063
5064
5065
5066
5067
5068
5069
5070
5071
5072
5073
5074
5075
5076
5077
5078
5079
5080
5081
5082
5083
5084
5085
5086
5087
5088
5089
5090
5091
5092
5093
5094
5095
5096
5097
5098
5099
5100
5101
5102
5102
5102
5102
5102
5102
5102
5102
5111
5111
5112
5113
5114
5115
5116
5117
5118
5119
5120
5121
5122
5123
5124
5125
5126
5127
5128
5129
5130
5131
5132
5133
5134
5135
5136
5137
5138
5139
5140
5141
5142
5143
5144
5145
5146
5147
5148
5149
5150
5151
5152
5153
5154
5155
5156
5157
5158
5159
5160
5161
5162
5163
5164
5165
5166
5167
5168
5169
5170
5171
5172
5172
5172
5172
5172
5172
5172
5172
5181
5181
5182
5183
5184
5185
5186
5187
5188
5189
5190
5191
5192
5193
5194
5195
5196
5197
5198
5199
5200
5201
5202
5203
5204
5205
5206
5207
5208
5209
5210
5211
5212
5213
5214
5215
5216
5217
5218
5219
5220
5221
5222
5223
5224
5225
5226
5227
5228
5229
5230
5231
5232
5233
5234
5235
5236
5237
5238
5239
5240
5241
5242
5242
5242
5242
5242
5242
5242
5242
5251
5251
5252
5253
5254
5255
5256
5257
5258
5259
5260
5261
5262
5263
5264
5265
5266
5267
5268
5269
5270
5271
5272
5273
5274
5275
5276
5277
5278
5279
5280
5281
5282
5283
5284
5285
5286
5287
5288
5289
5290
5291
5292
5293
5294
5295
5296
5297
5298
5299
5300
5301
5302
5303
5304
5305
5306
5307
5308
5309
5310
5311
5312
5312
5312
5312
5312
5312
5312
5312
5321
5321
5322
5323
5324
5325
5326
5327
5328
5329
5330
5331
5332
5333
5334
5335
5336
5337
5338
5339
5340
5341
5342
5343
5344
5345
5346
5347
5348
5349
5350
5351
5352
5353
5354
5355
5356
5357
5358
5359
5360
5361
5362
5363
5364
5365
5366
5367
5368
5369
5370
5371
5372
5373
5374
5375
5376
5377
5378
5379
5380
5381
5382
5382
5382
5382
5382
5382
5382
5382
5321
5321
5322
5323
5394
5395
5396
5397
5328
5329
5330
5401
5402
5403
5404
5405
5406
5407
5408
5409
5410
5411
5412
5413
5414
5415
5416
5417
5418
5419
5420
5421
5422
5423
5424
5425
5426
5427
5428
5429
5430
5431
5432
5433
5434
5435
5436
5437
5438
5439
5440
5441
5442
5443
5444
5445
5446
5447
5448
5449
5450
5451
5452
5452
5452
5452
5452
5452
5452
5878
5461
5461
5462
5463
5464
5465
5466
5467
5468
5469
5469
5401
5402
5473
5474
5475
5476
5477
5478
5479
5480
5481
5482
5483
5484
5485
5486
5487
5488
5489
5490
5491
5492
5493
5494
5495
5496
5497
5498
5499
5500
5501
5502
5503
5504
5505
5506
5507
5508
5509
5510
5511
5512
5513
5514
5515
5516
5517
5518
5519
5520
5521
5522
5522
5522
5522
5522
5522
5878
5878
5531
5531
5532
5533
5534
5535
5536
5537
5538
5539
5539
5401
5473
5473
5474
5545
5546
5547
5548
5549
5550
5551
5552
5553
5554
5555
5556
5557
5558
5559
5560
5561
5562
5563
5564
5565
5566
5567
5568
5569
5570
5571
5572
5573
5574
5575
5576
5577
5578
5579
5580
5581
5582
5583
5584
5585
5586
5587
5588
5589
5590
5591
5592
5592
5592
5592
5592
5877
5878
5878
5601
5601
5602
5603
5604
5605
5606
5607
5608
5609
5609
5609
5473
5473
5545
5545
5546
5617
5618
5619
5620
5621
5622
5623
5624
5625
5626
5627
5628
5629
5630
5631
5632
5633
5634
5635
5636
5637
5638
5639
5640
5641
5642
5643
5644
5645
5646
5647
5648
5649
5650
5651
5652
5653
5654
5655
5656
5657
5658
5659
5660
5661
5662
5662
5662
5662
5876
5877
5878
5878
5671
5671
5672
5673
5674
5675
5676
5677
5678
5679
5679
5679
5679
5545
5545
5545
5617
5617
5618
5689
5690
5691
5692
5693
5694
5695
5696
5697
5698
5699
5700
5701
5702
5703
5704
5705
5706
5707
5708
5709
5710
5711
5712
5713
5714
5715
5716
5717
5718
5719
5720
5721
5722
5723
5724
5725
5726
5727
5728
5729
5730
5731
5732
5732
5732
5875
5876
5877
5878
5878
5741
5741
5742
5743
5744
5745
5746
5747
5748
5749
5749
5749
5749
5545
5545
5617
5617
5828
5759
5759
5760
5761
5762
5763
5764
5765
5766
5767
5768
5769
5700
5701
5702
5703
5704
5705
5706
5707
5708
5709
5710
5711
5712
5713
5714
5715
5716
5717
5718
5719
5720
5721
5722
5723
5724
5725
5726
5727
5728
5729
5730
5731
5732
5873
5874
5875
5876
5877
5878
5878
5811
5811
5812
5813
5814
5815
5816
5817
5818
5819
5819
5819
5819
5819
5897
5897
5897
5828
5828
5829
5830
5831
5832
5833
5834
5835
5836
5837
5838
5839
5840
5841
5842
5843
5844
5845
5846
5847
5848
5849
5850
5851
5852
5853
5854
5855
5856
5857
5858
5859
5860
5861
5862
5863
5864
5865
5866
5867
5868
5869
5870
5871
5872
5873
5874
5875
5876
5877
5878
5878
5881
5881
5882
5883
5884
5885
5886
5887
5888
5889
5889
5889
5889
5889
5897
5897
5897
5897
5898
5899
5900
5901
5902
5903
5904
5905
5906
5907
5908
5909
5910
5911
5912
5913
5914
5915
5916
5917
5918
5919
5920
5921
5922
5923
5924
5925
5926
5927
5928
5929
5930
5931
5932
5933
5934
5935
5936
5937
5938
5939
5940
5941
5942
5943
5944
5945
5946
5947
5948
5948
5951
5951
5952
5953
5954
5955
5956
5957
5958
5959
5959
5959
5959
6106
6106
5967
5967
5967
5968
5969
5970
5971
5972
5973
5974
5975
5976
5977
5978
5979
5980
5981
5982
5983
5984
5985
5986
5987
5988
5989
5990
5991
5992
5993
5994
5995
5996
5997
5998
5999
6000
6001
6002
6003
6004
6005
6006
6007
6008
6009
6010
6011
6012
6013
6014
6015
6016
6017
6018
6018
6021
6021
6022
6023
6024
6025
6026
6027
6028
6029
6029
6029
6029
6106
6106
6106
6037
6037
6038
6039
6040
6041
6042
6043
6044
6045
6046
6047
6048
6049
6050
6051
6052
6053
6054
6055
6056
6057
6058
6059
6060
6061
6062
6063
6064
6065
6066
6067
6068
6069
6070
6071
6072
6073
6074
6075
6076
6077
6078
6079
6080
6081
6082
6083
6084
6085
6086
6087
6088
6088
6091
6091
6092
6093
6094
6095
6096
6097
6098
6099
6099
6099
6099
6245
6106
6106
6106
6107
6108
6109
6110
6111
6112
6113
6114
6115
6116
6117
6118
6119
6120
6121
6122
6123
6124
6125
6126
6127
6128
6129
6130
6131
6132
6133
6134
6135
6136
6137
6138
6139
6140
6141
6142
6143
6144
6145
6146
6147
6148
6149
6150
6151
6152
6153
6154
6155
6156
6157
6158
6158
6161
6161
6162
6163
6164
6165
6166
6167
6168
6169
6169
6169
6169
6245
6245
6176
6176
6177
6178
6179
6180
6181
6182
6183
6184
6185
6186
6187
6188
6189
6190
6191
6192
6193
6194
6195
6196
6197
6198
6199
6200
6201
6132
6133
6134
6135
6136
6137
6138
6139
6140
6141
6212
6213
6214
6215
6216
6217
6218
6219
6220
6221
6222
6223
6224
6225
6226
6227
6228
6228
6231
6231
6232
6233
6234
6235
6236
6237
6238
6239
6239
6239
6384
6245
6245
6245
6246
6247
6248
6249
6250
6251
6252
6253
6254
6255
6256
6257
6258
6259
6260
6261
6262
6263
6264
6265
6266
6267
6268
6269
6200
6201
6201
6133
6134
6135
6136
6137
6138
6139
6140
6212
6212
6213
6284
6285
6286
6287
6288
6289
6290
6291
6292
6293
6294
6295
6296
6297
6298
6298
6301
6301
6302
6303
6304
6305
6306
6307
6308
6309
6309
6309
6384
6384
6315
6315
6316
6317
6318
6319
6320
6321
6322
6323
6324
6325
6326
6327
6328
6329
6330
6331
6332
6333
6334
6335
6336
6337
6268
6269
6269
6201
6201
6201
6134
6135
6136
6137
6138
6139
6212
6212
6212
6284
6284
6355
6356
6357
6358
6359
6360
6361
6362
6363
6364
6365
6366
6367
6368
6368
6371
6371
6372
6373
6374
6375
6376
6377
6378
6379
6379
6379
6384
6384
6384
6385
6386
6387
6388
6389
6390
6391
6392
6393
6394
6395
6396
6397
6398
6399
6400
6401
6402
6403
6334
6335
6336
6337
6337
6269
6269
6269
6201
6201
6134
6135
6136
6137
6138
6139
6212
6212
6284
6284
6355
6355
6426
6427
6428
6429
6430
6431
6432
6433
6434
6435
6436
6437
6438
6438
6441
6441
6442
6443
6444
6445
6446
6447
6448
6449
6449
6449
6523
6454
6454
6455
6456
6457
6458
6459
6460
6461
6462
6463
6464
6465
6466
6467
6468
6469
6470
6471
6472
6473
6473
6335
6336
6337
6337
6337
6269
6269
6201
6201
6134
6135
6136
6137
6138
6139
6212
6212
6284
6355
6496
6496
6496
6497
6498
6499
6500
6501
6502
6503
6504
6505
6506
6507
6508
6508
6511
6511
6512
6513
6514
6515
6516
6517
6518
6519
6519
6519
6523
6523
6524
6525
6526
6527
6528
6529
6530
6531
6532
6533
6534
6535
6536
6537
6538
6539
6540
6541
6542
6543
6543
6543
6336
6337
6337
6337
6269
6269
6269
6201
6201
6135
6136
6137
6138
6212
6212
6284
6566
6566
6566
6566
6566
6567
6568
6569
6570
6571
6572
6573
6574
6575
6576
6577
6578
6578
6581
6581
6582
6583
6584
6585
6586
6587
6588
6589
6589
6589
6593
6593
6594
6595
6596
6597
6598
6599
6600
6601
6602
6603
6604
6605
6606
6607
6608
6609
6610
6611
6612
6613
6613
6613
6756
6757
6757
6757
6757
6900
6900
6900
6974
6975
6976
6977
6978
6979
6913
6775
6775
6775
6636
6636
6636
6637
6638
6639
6640
6641
6642
6643
6644
6645
6646
6647
6648
6648
6651
6651
6652
6653
6654
6655
6656
6657
6658
6659
6659
6732
6663
6663
6664
6665
6666
6667
6668
6669
6670
6671
6672
6673
6674
6675
6676
6677
6678
6679
6680
6681
6682
6683
6683
6755
6756
6757
6757
6757
6828
6900
6900
6973
6974
6975
6976
6977
6978
6979
6980
6913
6775
6775
6775
6706
6706
6707
6708
6709
6710
6711
6712
6713
6714
6715
6716
6717
6718
6718
6721
6721
6722
6723
6724
6725
6726
6727
6728
6729
6729
6732
6732
6733
6734
6735
6736
6737
6738
6739
6740
6741
6742
6743
6744
6745
6746
6747
6748
6749
6750
6751
6752
6753
6754
6755
6756
6757
6757
6828
6900
6900
6900
6973
6974
6975
6976
6977
6978
6979
6980
6913
6913
6775
6775
6775
6776
6777
6778
6779
6780
6781
6782
6783
6784
6785
6786
6787
6788
6788
6791
6791
6792
6793
6794
6795
6796
6797
6798
6799
6799
6802
6802
6803
6804
6805
6806
6807
6808
6809
6810
6811
6812
6813
6814
6815
6816
6817
6818
6819
6820
6821
6822
6823
6824
6825
6826
6827
6828
6828
6900
6900
6972
6973
6974
6975
6976
6977
6978
6979
6980
6981
6913
6913
6845
6845
6846
6847
6848
6849
6850
6851
6852
6853
6854
6855
6856
6857
6858
6858
6861
6861
6862
6863
6864
6865
6866
6867
6868
6869
6869
6871
6872
6873
6874
6875
6876
6877
6878
6879
6880
6881
6882
6883
6884
6885
6886
6887
6888
6889
6890
6891
6892
6893
6894
6895
6896
6897
6898
6899
6900
6900
6972
6973
6974
6975
6976
6977
6978
6979
6980
6981
6913
6913
6914
6915
6916
6917
6918
6919
6920
6921
6922
6923
6924
6925
6926
6927
6928
6928
6931
6931
6932
6933
6934
6935
6936
6937
6938
6939
6939
6941
6942
6943
6944
6945
6946
6947
6948
6949
6950
6951
6952
6953
6954
6955
6956
6957
6958
6959
6960
6961
6962
6963
6964
6965
6966
6967
6968
6969
6970
6971
6972
6973
6974
6975
6976
6977
6978
6979
6980
6981
6982
6983
6984
6985
6986
6987
6988
6989
6990
6991
6992
6993
6994
6995
6926
6927
6928
6928
7001
7001
7002
7003
7004
7005
7006
7007
7008
7009
7010
7011
7012
7013
7014
7015
7016
7017
7018
7019
7020
7021
7022
7023
7024
7025
7026
7027
7028
7029
7030
7031
7032
7033
7034
7035
7036
7037
7038
7039
7040
7041
7042
7043
7044
7045
7046
7047
7048
7049
7050
7051
7052
7053
7054
7055
7056
7057
7058
7059
7060
7061
7062
7063
7064
6995
6995
6927
6928
6928
7071
7071
7072
7073
7074
7075
7076
7077
7078
7079
7080
7081
7082
7083
7084
7085
7086
7087
7088
7089
7090
7091
7092
7093
7094
7095
7096
7097
7098
7099
7100
7101
7102
7103
7104
7105
7106
7107
7108
7109
7110
7111
7112
7113
7114
7115
7116
7117
7118
7119
7120
7121
7122
7123
7124
7125
7126
7127
7128
7129
7130
7131
7132
7133
7064
7064
6995
6995
6928
6928
7141
7141
7142
7143
7144
7145
7146
7147
7148
7149
7150
7151
7152
7153
7154
7155
7156
7157
7158
7159
7160
7161
7162
7163
7164
7165
7166
7167
7168
7169
7170
7171
7172
7173
7174
7175
7176
7177
7178
7179
7180
7181
7182
7183
7184
7185
7186
7187
7188
7189
7190
7191
7192
7193
7194
7195
7196
7197
7198
7199
7200
7201
7202
7133
7133
7064
7064
6995
6928
6928
7211
7211
7212
7213
7214
7215
7216
7217
7218
7219
7220
7221
7222
7223
7224
7225
7226
7227
7228
7229
7230
7231
7232
7233
7234
7235
7236
7237
7238
7239
7240
7241
7242
7243
7244
7245
7246
7247
7248
7249
7250
7251
7252
7253
7254
7255
7256
7257
7258
7259
7260
7261
7262
7263
7264
7265
7266
7267
7268
7269
7270
7271
7272
7272
7272
7133
7064
7064
6928
6928
7281
7281
7282
7283
7284
7285
7286
7287
7288
7289
7290
7291
7292
7293
7294
7295
7296
7297
7298
7299
7300
7301
7302
7303
7304
7305
7306
7307
7308
7309
7310
7311
7312
7313
7314
7315
7316
7317
7318
7319
7320
7321
7322
7323
7324
7325
7326
7327
7328
7329
7330
7331
7332
7333
7334
7335
7336
7337
7338
7339
7340
7341
7342
7342
7342
7342
7342
7064
7064
6928
7281
7281
7282
7283
7284
7285
7286
7287
7288
7289
7290
7291
7292
7293
7294
7295
7296
7297
7298
7299
7300
7301
7302
7303
7304
7305
7306
7307
7308
7309
7310
7311
7312
7313
7314
7315
7316
7317
7318
7319
7320
7321
7322
7323
7324
7325
7326
7327
7328
7329
7330
7331
7332
7333
7334
7335
7336
7337
7338
7339
7340
7341
7342
7342
7342
7342
7342
7342
7342
6928
