23a01af0-232a-4518-9c0e-323fb773f5ef 61902 48057 -63.500000 3.000000 5.900000 1.100000 2.600000
23a01af0-232a-4518-9c0e-323fb773f5ef 61902 48056 -65.900002 3.200000 5.900000 4.200000 2.600000
23a01af0-232a-4518-9c0e-323fb773f5ef 61902 48054 -65.959999 3.200000 5.900000 11.000000 2.600000
23a01af0-232a-4518-9c0e-323fb773f5ef 61902 48053 -67.120003 3.500000 4.000000 12.300000 2.300000
23a01af0-232a-4518-9c0e-323fb773f5ef 61902 48052 -67.190002 3.000000 0.280000 9.900000 2.600000
23a01af0-232a-4518-9c0e-323fb773f5ef 61902 48051 -67.320000 3.600000 0.210000 4.250000 2.600000
23a01af0-232a-4518-9c0e-323fb773f5ef 61902 48050 -64.699997 3.500000 0.830000 0.300000 2.600000
23a01af0-232a-4518-9c0e-323fb773f5ef 61902 48049 -73.129997 2.500000 4.600000 0.240000 2.600000
23a01af0-232a-4518-9c0e-323fb773f5ef 61902 48055 -70.790001 2.000000 5.900000 8.500000 2.600000
