1513790316198 2.651168 2.100230 0.000000
1513790316631 2.787617 2.134846 0.000000
1513790317066 2.864036 2.233295 0.000000
1513790317496 2.908244 2.169635 0.000000
1513790317925 2.921796 2.170388 0.000000
1513790318368 3.086853 2.479178 0.000000
1513790318805 3.272055 2.790824 0.000000
1513790319233 3.453784 3.093337 0.000000
1513790319682 3.529192 3.280119 0.000000
1513790320116 3.098061 4.155832 0.000000
1513790320546 2.815789 4.787785 0.000000
1513790320993 2.634021 5.266535 0.000000
1513790321416 2.520245 5.649471 0.000000
1513790321858 2.956916 5.235213 0.000000
1513790322285 2.742696 5.713546 0.000000
1513790322724 2.542239 6.056355 0.000000
1513790323155 2.778262 5.899728 0.000000
1513790323586 2.994741 5.784621 0.000000
1513790324027 2.756423 6.012611 0.000000
1513790324454 2.954047 5.937219 0.000000
1513790324901 3.114264 5.870140 0.000000
1513790325318 3.245604 5.831762 0.000000
1513790325749 3.357444 5.835601 0.000000
1513790326184 3.489914 5.909222 0.000000
1513790326616 3.608142 5.961168 0.000000
1513790327042 3.737931 6.052079 0.000000
1513790327481 3.311334 6.214048 0.000000
1513790327921 2.984480 6.303431 0.000000
1513790328358 2.731985 6.425372 0.000000
1513790328790 2.525021 6.505331 0.000000
1513790329237 2.711268 6.628983 0.000000
1513790329660 2.621106 6.994200 0.000000
1513790330092 2.599575 7.285964 0.000000
1513790330526 2.603600 7.496656 0.000000
1513790330961 2.634835 7.671016 0.000000
1513790331398 2.682850 7.832457 0.000000
1513790331850 2.728308 7.974894 0.000000
1513790332260 2.787216 8.112163 0.000000
1513790332695 2.868953 8.245265 0.000000
1513790333128 2.964855 8.368441 0.000000
