->GRAPH
169 162
169 484
169 645
169 806
169 967
169 1128
169 1289
169 1450
169 1772
169 1933
337 323
337 484
337 645
337 806
337 967
337 1772
337 1933
505 162
505 323
505 484
505 645
505 806
505 967
505 1128
505 1289
505 1450
505 1611
505 1772
505 1933
673 645
673 1450
841 645
841 1450
589 82
757 82
925 82
925 244
925 406
925 568
757 568
589 568
925 730
925 892
925 1054
925 1216
925 1378
925 1540
925 1702
925 1864
925 2026
757 2026
589 2026
85 1540
85 730
85 568
253 406
253 244
->EDGES
1 11 232.69
1 57 117.39
2 3 161.00
2 11 232.69
2 12 168.00
2 13 232.69
2 55 118.79
2 56 114.63
3 4 161.00
3 12 232.69
3 13 168.00
3 14 232.69
3 54 119.50
3 55 113.95
4 5 161.00
4 13 232.69
4 14 168.00
4 15 232.69
4 54 113.28
5 6 161.00
5 14 232.69
5 15 168.00
6 7 161.00
6 15 232.69
7 8 161.00
8 53 123.11
9 10 161.00
9 16 168.00
9 17 232.69
10 16 232.69
10 17 168.00
11 12 161.00
11 19 168.00
11 20 232.69
11 56 118.09
11 57 115.31
12 13 161.00
12 19 232.69
12 20 168.00
12 21 232.69
12 56 114.63
13 14 161.00
13 20 232.69
13 21 168.00
13 22 232.69
14 15 161.00
14 21 232.69
14 22 168.00
14 23 232.69
15 22 232.69
15 23 168.00
15 24 232.69
16 17 161.00
16 27 232.69
16 28 168.00
16 29 232.69
17 28 232.69
17 29 168.00
18 19 161.00
18 34 116.00
19 20 161.00
20 21 161.00
20 30 232.69
20 41 118.79
21 22 161.00
21 30 168.00
21 41 113.95
22 23 161.00
23 24 161.00
24 25 161.00
25 26 161.00
25 31 232.69
26 27 161.00
26 31 168.00
27 28 161.00
27 31 232.69
28 29 161.00
29 52 125.32
30 32 168.00
30 40 113.95
30 41 113.95
31 33 168.00
32 39 113.95
32 40 113.95
33 46 110.63
33 47 123.11
34 35 168.00
35 36 168.00
36 37 162.00
37 38 162.00
38 39 162.00
39 40 168.00
39 42 162.00
40 41 168.00
40 42 233.38
42 43 162.00
43 44 162.00
44 45 162.00
45 46 162.00
46 47 162.00
47 48 162.00
48 49 162.00
49 50 162.00
50 51 168.00
51 52 168.00
54 55 162.00
55 56 233.38
56 57 162.00
