[{
	"beacons": [{
		"uuid": "23A01AF0-232A-4518-9C0E-323FB773F5EF",
		"x": 8.02,
		"y": 8.8,
		"z": 2.85,
		"macAddress": "01:17:C5:97:D2:21",
		"major": 65308,
		"minor": 48674,
		"damp": 3.3,
		"txpower": -41.79
	}, {
		"uuid": "23A01AF0-232A-4518-9C0E-323FB773F5EF",
		"x": 16.996,
		"y": 8.8,
		"z": 2.85,
		"macAddress": "01:17:C5:97:BF:A4",
		"major": 65308,
		"minor": 48675,
		"damp": 4.2,
		"txpower": -50
	}, {
		"uuid": "23A01AF0-232A-4518-9C0E-323FB773F5EF",
		"x": 27.47,
		"y": 8.8,
		"z": 2.85,
		"macAddress": "01:17:C5:96:31:8A",
		"major": 65308,
		"minor": 48676,
		"damp": 3.7,
		"txpower": -40
	}, {
		"uuid": "23A01AF0-232A-4518-9C0E-323FB773F5EF",
		"x": 41.4,
		"y": 8.8,
		"z": 2.85,
		"macAddress": "01:17:C5:97:E2:E6",
		"major": 65308,
		"minor": 48677,
		"damp": 3.3,
		"txpower": -50.32
	}, {
		"uuid": "23A01AF0-232A-4518-9C0E-323FB773F5EF",
		"x": 54.422,
		"y": 8.8,
		"z": 2.85,
		"macAddress": "01:17:C5:97:19:D0",
		"major": 65308,
		"minor": 48678,
		"damp": 3.7,
		"txpower": -50.88
	}, {
		"uuid": "23A01AF0-232A-4518-9C0E-323FB773F5EF",
		"x": 70,
		"y": 8.8,
		"z": 2.85,
		"macAddress": "01:17:C5:97:EA:FA",
		"major": 65308,
		"minor": 48679,
		"damp": 3,
		"txpower": -57.02
	}, {
		"uuid": "23A01AF0-232A-4518-9C0E-323FB773F5EF",
		"x": 49.53,
		"y": 3.31,
		"z": 2.85,
		"macAddress": "01:17:C5:97:C0:AF",
		"major": 65308,
		"minor": 48680,
		"damp": 2,
		"txpower": -60.36
	}, {
		"uuid": "23A01AF0-232A-4518-9C0E-323FB773F5EF",
		"x": 43.82,
		"y": 14.27,
		"z": 2.85,
		"macAddress": "01:17:C5:97:DD:D3",
		"major": 65308,
		"minor": 48681,
		"damp": 3,
		"txpower": -57.37
	}],
	"description": "Floor 3, Radio Building",
	"width": 80.7,
	"height": 16.2,
	"pixelSize": 0.0250,
	"floor_number": 3,
	"mesh1StepX": 0.3,
	"mesh1StepY": 0.3,
	"mesh1RowsN": 270,
	"mesh1ColumnsN": 55,
	"mesh2StepX": 0.1,
	"mesh2StepY": 0.1,
	"mesh2RowsN": 163,
	"mesh2ColumnsN": 808,
	"mapAngle": -140
}]